<svg width="1180" height="663" viewBox="0 0 1180 663" fill="none" xmlns="http://www.w3.org/2000/svg">
<path d="M256.574 20.7279L16.9207 327.267C9.37711 336.901 -5.70996 331.354 -5.70996 319.384V12.8454C-5.70996 5.83884 0.0926232 0 7.05591 0H246.709C257.444 0 263.247 12.2616 256.574 20.7279Z" fill="#FAFAFA"/>
<path d="M503.48 421.856L279.785 420.396C276.013 420.396 272.241 422.148 269.63 425.359L87.7141 658.037C85.393 661.248 81.6213 663 77.8495 663H6.76609C-0.197192 663 -6 657.161 -6 650.155V477.033C-6 474.114 -5.1297 471.486 -3.38887 469.151L359.572 4.96301C362.184 1.75165 365.955 0 369.727 0H886.751C897.196 0 903.289 12.2616 896.616 20.7279L782.882 166.115C780.561 169.326 776.789 171.078 773.017 171.078H484.331C474.467 171.078 464.892 175.749 458.799 183.631L428.625 221.876C421.952 230.342 428.045 242.604 438.49 242.604H623.597C634.042 242.604 640.135 254.865 633.462 263.332L513.345 416.893C511.024 420.104 507.252 421.856 503.48 421.856Z" fill="#FAFAFA"/>
<path d="M1179.79 12.8454V158.233C1179.79 165.239 1173.99 171.078 1167.02 171.078H896.034C885.59 171.078 879.497 158.816 886.17 150.35L999.904 4.96301C1002.22 1.75165 1006 0 1009.77 0H1167.02C1173.99 0 1179.79 5.83884 1179.79 12.8454Z" fill="#FAFAFA"/>
<path d="M746.903 242.604H1167.02C1173.98 242.604 1179.79 248.443 1179.79 255.449V650.155C1179.79 657.161 1173.98 663 1167.02 663H208.119C197.675 663 191.582 650.738 198.255 642.272L311.698 496.885C314.019 493.674 317.791 491.922 321.563 491.922H932.591C942.455 491.922 952.03 487.251 958.123 479.369L988.297 440.832C994.97 432.366 988.877 420.104 978.432 420.104H627.657C617.212 420.104 611.119 407.843 617.793 399.377L736.749 247.275C739.36 244.355 742.841 242.604 746.903 242.604Z" fill="#FAFAFA"/>
</svg>
