<svg width="198" height="82" viewBox="0 0 198 82" fill="none" xmlns="http://www.w3.org/2000/svg">
<path d="M120.854 54.3322C121.095 56.3289 122.523 56.9733 124.203 57.2796C127.352 57.8501 130.523 57.8501 133.704 57.6494C134.975 57.5649 136.255 57.3853 137.515 57.1951C137.998 57.1212 138.492 56.931 138.912 56.6669C140.098 55.9063 140.077 54.2794 138.828 53.6561C138.103 53.2969 137.242 53.1279 136.423 53.0856C132.192 52.8426 127.961 52.7264 123.73 52.4201C121.861 52.2827 119.951 52.0081 118.166 51.4376C114.355 50.2121 112.664 47.0851 113.41 43.1446C113.84 40.8627 115.216 39.3415 117.252 38.3696C119.142 37.4716 121.158 37.0385 123.216 36.8272C128.444 36.299 133.683 36.1616 138.849 37.3131C140.403 37.6618 141.956 38.2639 143.342 39.0457C145.631 40.3345 146.597 42.4579 146.492 45.173C144.98 45.2997 139.972 45.3843 138.639 45.3843C138.366 43.5566 137.148 42.9122 135.626 42.6481C133.053 42.2044 130.429 42.0565 127.814 42.1727C126.596 42.2255 125.379 42.2361 124.171 42.4157C123.331 42.5425 122.344 42.6481 121.662 43.1974C120.749 43.9369 121.106 45.3631 122.05 45.923C122.638 46.2717 123.426 46.3879 124.129 46.4301C128.192 46.6731 132.255 46.8316 136.318 47.0957C138.145 47.2119 139.983 47.4337 141.788 47.7401C142.702 47.8986 143.636 48.2472 144.424 48.7437C145.253 49.2719 146.072 49.9586 146.597 50.7615C148.77 54.1315 147.458 59.2129 143.983 61.1779C141.746 62.435 139.269 62.8787 136.77 63.1323C131.877 63.6182 126.974 63.6499 122.103 62.8787C120.003 62.5407 117.977 61.9808 116.119 60.8609C114.029 59.6144 112.633 56.6775 113.021 54.3428H120.854V54.3322Z" fill="white"/>
<path d="M95.5615 53.635V37.028H102.732V62.6886C102.365 62.7309 98.1863 62.6886 95.866 62.6886C94.9001 62.7203 93.4932 62.5618 92.7688 61.9386C87.1414 57.1001 81.4824 52.2828 75.8235 47.4655C75.414 47.1169 74.9836 46.7894 74.2907 46.2506V62.7309H66.9099C66.8049 54.2161 66.8889 45.6696 66.8574 36.9223C68.6842 36.9223 70.0596 36.8906 71.9809 36.8906C74.5111 37.028 76.4849 37.5245 78.4062 39.2148C83.4457 43.6412 88.6532 47.8564 93.7977 52.156C94.2702 52.5469 95.5615 53.635 95.5615 53.635Z" fill="white"/>
<path d="M155.868 37.0173H163.71C163.742 37.6618 163.71 38.2639 163.71 38.8555C163.721 41.8875 163.689 44.9089 163.71 47.9408C163.721 48.8916 163.752 49.8529 163.889 50.7932C164.288 53.5716 165.81 55.4203 168.529 56.1281C171.438 56.8782 174.388 56.8993 177.296 56.1915C180.341 55.4414 181.958 53.5399 182.252 50.4023C182.388 48.9022 182.346 47.3809 182.357 45.8596C182.367 43.5038 182.357 41.148 182.367 38.7921C182.367 38.2428 182.336 37.6934 182.367 37.049H190.262C190.304 37.461 190.262 37.8836 190.262 38.3062C190.273 41.6762 190.325 45.0356 190.241 48.4056C190.199 50.022 190 51.6489 189.674 53.2335C188.687 58.0931 185.706 61.1884 180.981 62.4667C175.826 63.8612 170.619 63.8823 165.443 62.5723C160.015 61.2095 157.033 57.5754 156.204 52.1031C155.983 50.6664 155.889 49.2085 155.868 47.7506C155.815 44.7187 155.857 41.6973 155.868 38.6654C155.868 38.1688 155.836 37.6723 155.868 37.0173Z" fill="white"/>
<path d="M36.0639 37.0701V43.6411H15.5279V48.4478C15.5279 48.4478 19.591 48.4795 21.5753 48.4901C23.5806 48.5006 25.5859 48.4901 27.5912 48.4901H33.5652L33.6701 54.6807H15.5279V62.7519H7.87419L7.70621 37.2391L36.0639 37.0701Z" fill="white"/>
<path d="M55.2035 37.0701H47.4658V62.7096H55.2035V37.0701Z" fill="white"/>
<path d="M0 75.207H1.72183V81.852H0V75.207Z" fill="white"/>
<path d="M2.89771 75.207H4.66153L6.96081 79.306H6.9818V75.207H8.59864V81.852H6.82432L4.52504 77.7108H4.51455V81.852H2.89771V75.207Z" fill="white"/>
<path d="M13.1342 81.852H11.1499L9.07108 75.207H10.8664L12.1578 80.1511H12.1788L13.4701 75.207H15.2655L13.1342 81.852Z" fill="white"/>
<path d="M15.7694 75.207H21.0294V76.5909H17.4808V77.753H20.7145V79.0947H17.4808V80.3624H21.1134V81.852H15.7589V75.207H15.7694Z" fill="white"/>
<path d="M22.1003 75.207H25.4705C25.7645 75.207 26.048 75.2387 26.3209 75.3127C26.5939 75.3761 26.8459 75.4923 27.0664 75.6402C27.2868 75.7881 27.4548 75.9888 27.5913 76.2212C27.7278 76.4536 27.7908 76.7389 27.7908 77.0769C27.7908 77.4361 27.7068 77.7742 27.5388 78.0805C27.3708 78.3869 27.1083 78.6087 26.7619 78.7461V78.7672C26.9299 78.8095 27.0769 78.8834 27.1923 78.9996C27.3078 79.1158 27.4023 79.2426 27.4758 79.3905C27.5493 79.5384 27.6018 79.6969 27.6438 79.8659C27.6858 80.0349 27.7068 80.2039 27.7173 80.3518C27.7278 80.4152 27.7278 80.5209 27.7383 80.6688C27.7488 80.8167 27.7593 80.9646 27.7803 81.1125C27.8013 81.2709 27.8223 81.4188 27.8643 81.5456C27.9063 81.6829 27.9483 81.778 28.0008 81.8414H26.2999C26.2579 81.7886 26.2369 81.7041 26.2054 81.609C26.1739 81.5139 26.1634 81.4083 26.1529 81.2921C26.1424 81.1864 26.1319 81.0808 26.1214 80.9857C26.1109 80.8906 26.1109 80.8167 26.1004 80.7744C26.0899 80.6054 26.069 80.4469 26.048 80.2779C26.027 80.1089 25.9745 79.9715 25.9115 79.8448C25.8485 79.718 25.754 79.6123 25.628 79.5278C25.5125 79.4539 25.3445 79.4116 25.145 79.4116H23.8432V81.8308H22.1213V75.207H22.1003ZM23.8222 78.0911H25.2605C25.523 78.0911 25.712 78.0277 25.8485 77.8904C25.985 77.753 26.048 77.5629 26.048 77.3093C26.048 77.0663 25.964 76.8762 25.796 76.76C25.628 76.6438 25.418 76.591 25.1765 76.591H23.8117V78.0911H23.8222Z" fill="white"/>
<path d="M30.1215 79.623C30.1425 80.0139 30.258 80.2886 30.4785 80.4365C30.699 80.5844 30.993 80.6583 31.3709 80.6583C31.4969 80.6583 31.6334 80.6478 31.7594 80.6161C31.8854 80.5844 32.0009 80.5527 32.0954 80.4999C32.1898 80.447 32.2738 80.3731 32.3368 80.2886C32.3998 80.2041 32.4313 80.0984 32.4313 79.9716C32.4313 79.8237 32.3788 79.697 32.2738 79.6125C32.1688 79.5174 32.0219 79.4434 31.8434 79.3695C31.6649 79.3061 31.4654 79.2427 31.2344 79.1899C31.014 79.1371 30.7725 79.0737 30.531 79.0103C30.3 78.9469 30.0586 78.8624 29.8276 78.7673C29.5966 78.6722 29.3866 78.556 29.2081 78.4081C29.0297 78.2602 28.8827 78.0806 28.7672 77.8694C28.6517 77.6581 28.5992 77.394 28.5992 77.0876C28.5992 76.7284 28.6832 76.422 28.8407 76.1579C29.0087 75.9044 29.2186 75.6931 29.4706 75.5347C29.7331 75.3762 30.0166 75.26 30.342 75.186C30.6675 75.1121 30.972 75.0698 31.2869 75.0698C31.6124 75.0698 31.9379 75.1121 32.2528 75.1966C32.5678 75.2811 32.8513 75.4079 33.1033 75.5875C33.3447 75.7565 33.5547 75.9784 33.7017 76.253C33.8592 76.5277 33.9327 76.8446 33.9327 77.2144H32.2108C32.2213 77.0665 32.1898 76.9397 32.1268 76.8341C32.0639 76.7284 31.9799 76.6545 31.8854 76.5911C31.7804 76.5277 31.6649 76.4854 31.5389 76.4537C31.4129 76.4221 31.2764 76.4115 31.1504 76.4115C31.056 76.4115 30.9615 76.4221 30.867 76.4432C30.7725 76.4643 30.678 76.496 30.594 76.5383C30.51 76.5805 30.447 76.6439 30.3945 76.7073C30.342 76.7707 30.321 76.8658 30.321 76.982C30.321 77.1087 30.3735 77.2144 30.4785 77.2989C30.5835 77.3834 30.7305 77.4468 30.909 77.5102C31.0875 77.5736 31.2974 77.6264 31.5284 77.6792C31.7594 77.732 31.9904 77.7848 32.2318 77.8588C32.4733 77.9222 32.7043 78.0067 32.9353 78.1018C33.1662 78.1969 33.3657 78.3236 33.5442 78.461C33.7227 78.5983 33.8697 78.7884 33.9747 78.9997C34.0902 79.211 34.1426 79.4646 34.1426 79.7709C34.1426 80.1935 34.0587 80.5421 33.9012 80.8274C33.7437 81.1126 33.5232 81.345 33.2502 81.514C32.9773 81.6831 32.6728 81.8098 32.3263 81.8838C31.9799 81.9577 31.6229 82 31.2659 82C30.888 82 30.5205 81.9577 30.174 81.8732C29.8276 81.7887 29.5231 81.6514 29.2606 81.4506C28.9982 81.2605 28.7882 81.0175 28.6307 80.7111C28.4732 80.4154 28.3997 80.0456 28.3997 79.623H30.1215Z" fill="white"/>
<path d="M34.9511 75.207H36.6729V81.852H34.9511V75.207Z" fill="white"/>
<path d="M37.6178 78.5348C37.6178 78.0488 37.6913 77.5945 37.8382 77.1825C37.9852 76.76 38.1952 76.4008 38.4682 76.0839C38.7412 75.7669 39.0876 75.5239 39.4866 75.3444C39.8855 75.1648 40.3475 75.0697 40.8724 75.0697C41.3869 75.0697 41.8488 75.1542 42.2583 75.3444C42.6678 75.5345 43.0037 75.7669 43.2767 76.0839C43.5497 76.4008 43.7702 76.76 43.9066 77.1825C44.0536 77.6051 44.1271 78.0488 44.1271 78.5348C44.1271 79.0207 44.0536 79.475 43.9066 79.887C43.7597 80.3096 43.5497 80.6688 43.2767 80.9857C43.0037 81.3026 42.6573 81.5456 42.2583 81.7252C41.8593 81.9048 41.3974 81.9999 40.8724 81.9999C40.358 81.9999 39.896 81.9048 39.4866 81.7252C39.0876 81.5456 38.7412 81.3026 38.4682 80.9857C38.1952 80.6688 37.9747 80.3096 37.8382 79.887C37.6913 79.4644 37.6178 79.0207 37.6178 78.5348ZM39.3396 78.5348C39.3396 78.7883 39.3711 79.0207 39.4236 79.2637C39.4761 79.5067 39.5706 79.7074 39.6966 79.8976C39.8225 80.0877 39.98 80.2356 40.169 80.3413C40.3685 80.4575 40.5995 80.5103 40.8724 80.5103C41.1454 80.5103 41.3869 80.4575 41.5759 80.3413C41.7754 80.2251 41.9328 80.0772 42.0483 79.8976C42.1638 79.718 42.2583 79.4961 42.3213 79.2637C42.3738 79.0313 42.4053 78.7883 42.4053 78.5348C42.4053 78.2918 42.3738 78.0488 42.3213 77.8058C42.2688 77.5734 42.1743 77.3621 42.0483 77.172C41.9223 76.9818 41.7649 76.8339 41.5759 76.7283C41.3764 76.6121 41.1454 76.5592 40.8724 76.5592C40.5995 76.5592 40.358 76.6121 40.169 76.7283C39.9695 76.8445 39.8121 76.9924 39.6966 77.172C39.5811 77.3516 39.4866 77.5734 39.4236 77.8058C39.3711 78.0383 39.3396 78.2812 39.3396 78.5348ZM42.7413 73.3794L41.2924 74.7633H40.1795L41.0719 73.3794H42.7413Z" fill="white"/>
<path d="M45.0511 75.207H46.8149L49.1142 79.306H49.1352V75.207H50.752V81.852H48.9882L46.6889 77.7108H46.6679V81.852H45.0511V75.207Z" fill="white"/>
<path d="M58.1958 79.3799V81.852H56.4739V79.3799L54.0697 75.207H56.0225L57.3348 77.9115L58.6472 75.207H60.6L58.1958 79.3799Z" fill="white"/>
<path d="M63.9177 75.207H66.7629C67.2669 75.207 67.7184 75.281 68.1278 75.4289C68.5268 75.5768 68.8732 75.7986 69.1462 76.0839C69.4192 76.3691 69.6397 76.7177 69.7867 77.1192C69.9336 77.5206 70.0071 77.9854 70.0071 78.5031C70.0071 79.0524 69.9336 79.5278 69.7867 79.9504C69.6397 80.3624 69.4192 80.711 69.1462 80.9963C68.8627 81.2815 68.5268 81.4928 68.1278 81.6407C67.7289 81.7886 67.2774 81.8625 66.7734 81.8625H63.9282V75.207H63.9177ZM65.6396 80.3624H66.4585C66.7839 80.3518 67.0674 80.3201 67.2984 80.2462C67.5294 80.1722 67.7184 80.0666 67.8653 79.9187C68.0123 79.7708 68.1173 79.5806 68.1803 79.3482C68.2433 79.1158 68.2853 78.8306 68.2853 78.4925C68.2853 77.8798 68.1278 77.4361 67.8233 77.1403C67.5084 76.8445 67.0569 76.6966 66.469 76.6966H65.6501V80.3624H65.6396Z" fill="white"/>
<path d="M70.9415 75.207H76.2015V76.5909H72.6529V77.753H75.8865V79.0947H72.6529V80.3624H76.2855V81.852H70.931V75.207H70.9415Z" fill="white"/>
<path d="M78.6163 79.623C78.6373 80.0139 78.7528 80.2886 78.9732 80.4365C79.1937 80.5844 79.4877 80.6583 79.8657 80.6583C79.9916 80.6583 80.1281 80.6478 80.2541 80.6161C80.3801 80.5844 80.4956 80.5527 80.5901 80.4999C80.6846 80.447 80.7686 80.3731 80.8316 80.2886C80.8946 80.2041 80.9261 80.0984 80.9261 79.9716C80.9261 79.8237 80.8736 79.697 80.7686 79.6125C80.6636 79.5174 80.5166 79.4434 80.3381 79.3695C80.1596 79.3061 79.9601 79.2427 79.7292 79.1899C79.5087 79.1371 79.2672 79.0737 79.0257 79.0103C78.7948 78.9469 78.5533 78.8624 78.3223 78.7673C78.0913 78.6722 77.8813 78.556 77.7029 78.4081C77.5244 78.2602 77.3774 78.0806 77.2619 77.8694C77.1464 77.6581 77.0939 77.394 77.0939 77.0876C77.0939 76.7284 77.1779 76.422 77.3354 76.1579C77.5034 75.9044 77.7134 75.6931 77.9653 75.5347C78.2278 75.3762 78.5113 75.26 78.8367 75.186C79.1622 75.1121 79.4667 75.0698 79.7817 75.0698C80.1071 75.0698 80.4326 75.1121 80.7476 75.1966C81.0625 75.2811 81.346 75.4079 81.598 75.5875C81.8395 75.7565 82.0494 75.9784 82.1964 76.253C82.3539 76.5277 82.4274 76.8446 82.4274 77.2144H80.7056C80.7161 77.0665 80.6846 76.9397 80.6216 76.8341C80.5586 76.7284 80.4746 76.6545 80.3801 76.5911C80.2751 76.5277 80.1596 76.4854 80.0336 76.4537C79.9077 76.4221 79.7712 76.4115 79.6452 76.4115C79.5507 76.4115 79.4562 76.4221 79.3617 76.4432C79.2672 76.4643 79.1727 76.496 79.0887 76.5383C79.0047 76.5805 78.9417 76.6439 78.8892 76.7073C78.8368 76.7707 78.8158 76.8658 78.8158 76.982C78.8158 77.1087 78.8683 77.2144 78.9732 77.2989C79.0782 77.3834 79.2252 77.4468 79.4037 77.5102C79.5822 77.5736 79.7922 77.6264 80.0231 77.6792C80.2541 77.732 80.4851 77.7848 80.7266 77.8588C80.968 77.9222 81.199 78.0067 81.43 78.1018C81.661 78.1969 81.8605 78.3236 82.0389 78.461C82.2174 78.5983 82.3644 78.7884 82.4694 78.9997C82.5849 79.211 82.6374 79.4646 82.6374 79.7709C82.6374 80.1935 82.5534 80.5421 82.3959 80.8274C82.2384 81.1126 82.0179 81.345 81.745 81.514C81.472 81.6831 81.1675 81.8098 80.8211 81.8838C80.4746 81.9577 80.1176 82 79.7607 82C79.3827 82 79.0152 81.9577 78.6688 81.8732C78.3223 81.7887 78.0178 81.6514 77.7554 81.4506C77.4929 81.2605 77.2829 81.0175 77.1254 80.7111C76.9679 80.4154 76.8944 80.0456 76.8944 79.623H78.6163Z" fill="white"/>
<path d="M85.2411 75.207H86.9945L89.4617 81.852H87.6664L87.2569 80.6582H84.9577L84.5377 81.852H82.7739L85.2411 75.207ZM85.3566 79.3799H86.858L86.123 77.0558H86.102L85.3566 79.3799Z" fill="white"/>
<path d="M89.9656 75.207H93.3358C93.6298 75.207 93.9132 75.2387 94.1862 75.3127C94.4592 75.3761 94.7112 75.4923 94.9316 75.6402C95.1521 75.7881 95.3201 75.9888 95.4566 76.2212C95.5931 76.4536 95.6561 76.7389 95.6561 77.0769C95.6561 77.4361 95.5721 77.7742 95.4041 78.0805C95.2361 78.3869 94.9736 78.6087 94.6272 78.7461V78.7672C94.7952 78.8095 94.9422 78.8834 95.0576 78.9996C95.1731 79.1158 95.2676 79.2426 95.3411 79.3905C95.4146 79.5384 95.4671 79.6969 95.5091 79.8659C95.5511 80.0349 95.5721 80.2039 95.5826 80.3518C95.5931 80.4152 95.5931 80.5209 95.6036 80.6688C95.6141 80.8167 95.6246 80.9646 95.6456 81.1125C95.6666 81.2709 95.6876 81.4188 95.7296 81.5456C95.7716 81.6829 95.8136 81.778 95.8661 81.8414H94.1652C94.1232 81.7886 94.1022 81.7041 94.0707 81.609C94.0392 81.5139 94.0287 81.4083 94.0182 81.2921C94.0077 81.1864 93.9972 81.0808 93.9867 80.9857C93.9762 80.8906 93.9762 80.8167 93.9657 80.7744C93.9552 80.6054 93.9342 80.4469 93.9132 80.2779C93.8922 80.1089 93.8398 79.9715 93.7768 79.8448C93.7138 79.718 93.6193 79.6123 93.4933 79.5278C93.3778 79.4539 93.2098 79.4116 93.0103 79.4116H91.7085V81.8308H89.9866V75.207H89.9656ZM91.6875 78.0911H93.1258C93.3883 78.0911 93.5773 78.0277 93.7138 77.8904C93.8503 77.753 93.9132 77.5629 93.9132 77.3093C93.9132 77.0663 93.8293 76.8762 93.6613 76.76C93.4933 76.6438 93.2833 76.591 93.0418 76.591H91.677V78.0911H91.6875Z" fill="white"/>
<path d="M96.643 75.207H100.013C100.307 75.207 100.591 75.2387 100.864 75.3127C101.137 75.3761 101.389 75.4923 101.609 75.6402C101.829 75.7881 101.997 75.9888 102.134 76.2212C102.27 76.4536 102.333 76.7389 102.333 77.0769C102.333 77.4361 102.249 77.7742 102.081 78.0805C101.913 78.3869 101.651 78.6087 101.305 78.7461V78.7672C101.473 78.8095 101.62 78.8834 101.735 78.9996C101.85 79.1158 101.945 79.2426 102.018 79.3905C102.092 79.5384 102.144 79.6969 102.186 79.8659C102.228 80.0349 102.249 80.2039 102.26 80.3518C102.27 80.4152 102.27 80.5209 102.281 80.6688C102.291 80.8167 102.302 80.9646 102.323 81.1125C102.344 81.2709 102.365 81.4188 102.407 81.5456C102.449 81.6829 102.491 81.778 102.543 81.8414H100.843C100.801 81.7886 100.78 81.7041 100.748 81.609C100.717 81.5139 100.706 81.4083 100.696 81.2921C100.685 81.1864 100.675 81.0808 100.664 80.9857C100.654 80.8906 100.654 80.8167 100.643 80.7744C100.633 80.6054 100.612 80.4469 100.591 80.2779C100.57 80.1089 100.517 79.9715 100.454 79.8448C100.391 79.718 100.297 79.6123 100.171 79.5278C100.055 79.4539 99.8872 79.4116 99.6877 79.4116H98.3858V81.8308H96.664V75.207H96.643ZM98.3648 78.0911H99.8032C100.066 78.0911 100.255 78.0277 100.391 77.8904C100.528 77.753 100.591 77.5629 100.591 77.3093C100.591 77.0663 100.507 76.8762 100.339 76.76C100.171 76.6438 99.9607 76.591 99.7192 76.591H98.3543V78.0911H98.3648Z" fill="white"/>
<path d="M103.068 78.5349C103.068 78.0489 103.142 77.5947 103.289 77.1827C103.436 76.7601 103.646 76.4009 103.919 76.084C104.192 75.7671 104.538 75.5241 104.937 75.3445C105.336 75.1649 105.798 75.0698 106.323 75.0698C106.837 75.0698 107.299 75.1543 107.709 75.3445C108.118 75.5347 108.454 75.7671 108.727 76.084C109 76.4009 109.221 76.7601 109.357 77.1827C109.504 77.6052 109.578 78.0489 109.578 78.5349C109.578 79.0209 109.504 79.4751 109.357 79.8871C109.21 80.3097 109 80.6689 108.727 80.9858C108.454 81.3028 108.108 81.5457 107.709 81.7253C107.31 81.9049 106.848 82 106.323 82C105.809 82 105.347 81.9049 104.937 81.7253C104.538 81.5457 104.192 81.3028 103.919 80.9858C103.646 80.6689 103.425 80.3097 103.289 79.8871C103.142 79.4646 103.068 79.0209 103.068 78.5349ZM104.79 78.5349C104.79 78.7884 104.822 79.0209 104.874 79.2638C104.927 79.5068 105.021 79.7075 105.147 79.8977C105.273 80.0879 105.431 80.2358 105.62 80.3414C105.819 80.4576 106.05 80.5104 106.323 80.5104C106.596 80.5104 106.838 80.4576 107.026 80.3414C107.226 80.2252 107.383 80.0773 107.499 79.8977C107.614 79.7181 107.709 79.4963 107.772 79.2638C107.824 79.0314 107.856 78.7884 107.856 78.5349C107.856 78.2919 107.824 78.049 107.772 77.806C107.719 77.5736 107.625 77.3623 107.499 77.1721C107.373 76.982 107.215 76.8341 107.026 76.7284C106.827 76.6122 106.596 76.5594 106.323 76.5594C106.05 76.5594 105.809 76.6122 105.62 76.7284C105.42 76.8446 105.263 76.9925 105.147 77.1721C105.032 77.3517 104.937 77.5736 104.874 77.806C104.822 78.0384 104.79 78.2814 104.79 78.5349Z" fill="white"/>
<path d="M110.523 75.207H112.244V80.3624H115.321V81.852H110.523V75.207Z" fill="white"/>
<path d="M116.171 75.207H117.893V80.3624H120.969V81.852H116.171V75.207Z" fill="white"/>
<path d="M121.578 78.5349C121.578 78.0489 121.652 77.5947 121.799 77.1827C121.945 76.7601 122.155 76.4009 122.428 76.084C122.701 75.7671 123.048 75.5241 123.447 75.3445C123.846 75.1649 124.308 75.0698 124.833 75.0698C125.347 75.0698 125.809 75.1543 126.219 75.3445C126.628 75.5347 126.964 75.7671 127.237 76.084C127.51 76.4009 127.73 76.7601 127.867 77.1827C128.014 77.6052 128.087 78.0489 128.087 78.5349C128.087 79.0209 128.014 79.4751 127.867 79.8871C127.72 80.3097 127.51 80.6689 127.237 80.9858C126.964 81.3028 126.618 81.5457 126.219 81.7253C125.82 81.9049 125.358 82 124.833 82C124.318 82 123.856 81.9049 123.447 81.7253C123.048 81.5457 122.701 81.3028 122.428 80.9858C122.155 80.6689 121.935 80.3097 121.799 79.8871C121.652 79.4646 121.578 79.0209 121.578 78.5349ZM123.3 78.5349C123.3 78.7884 123.331 79.0209 123.384 79.2638C123.436 79.5068 123.531 79.7075 123.657 79.8977C123.783 80.0879 123.94 80.2358 124.129 80.3414C124.329 80.4576 124.56 80.5104 124.833 80.5104C125.106 80.5104 125.347 80.4576 125.536 80.3414C125.736 80.2252 125.893 80.0773 126.009 79.8977C126.124 79.7181 126.219 79.4963 126.282 79.2638C126.334 79.0314 126.366 78.7884 126.366 78.5349C126.366 78.2919 126.334 78.049 126.282 77.806C126.229 77.5736 126.135 77.3623 126.009 77.1721C125.883 76.982 125.725 76.8341 125.536 76.7284C125.337 76.6122 125.106 76.5594 124.833 76.5594C124.56 76.5594 124.318 76.6122 124.129 76.7284C123.93 76.8446 123.772 76.9925 123.657 77.1721C123.541 77.3517 123.447 77.5736 123.384 77.806C123.321 78.0384 123.3 78.2814 123.3 78.5349Z" fill="white"/>
<path d="M131.941 75.207H133.662V81.852H131.941V75.207Z" fill="white"/>
<path d="M134.828 75.207H136.592L138.891 79.306H138.912V75.207H140.529V81.852H138.765L136.466 77.7108H136.445V81.852H134.828V75.207Z" fill="white"/>
<path d="M141.715 75.207H144.245L145.379 79.6335H145.4L146.534 75.207H149.085V81.852H147.469V76.8022H147.448L146.062 81.852H144.749L143.363 76.8022H143.342V81.852H141.726V75.207H141.715Z" fill="white"/>
<path d="M150.02 78.5349C150.02 78.0489 150.093 77.5947 150.24 77.1827C150.387 76.7601 150.597 76.4009 150.87 76.084C151.143 75.7671 151.49 75.5241 151.889 75.3445C152.287 75.1649 152.749 75.0698 153.274 75.0698C153.789 75.0698 154.251 75.1543 154.66 75.3445C155.07 75.5347 155.406 75.7671 155.679 76.084C155.952 76.4009 156.172 76.7601 156.309 77.1827C156.456 77.6052 156.529 78.0489 156.529 78.5349C156.529 79.0209 156.456 79.4751 156.309 79.8871C156.162 80.3097 155.952 80.6689 155.679 80.9858C155.406 81.3028 155.059 81.5457 154.66 81.7253C154.261 81.9049 153.799 82 153.274 82C152.76 82 152.298 81.9049 151.889 81.7253C151.49 81.5457 151.143 81.3028 150.87 80.9858C150.597 80.6689 150.377 80.3097 150.24 79.8871C150.093 79.4646 150.02 79.0209 150.02 78.5349ZM151.742 78.5349C151.742 78.7884 151.773 79.0209 151.826 79.2638C151.878 79.5068 151.973 79.7075 152.099 79.8977C152.224 80.0879 152.382 80.2358 152.571 80.3414C152.77 80.4576 153.001 80.5104 153.274 80.5104C153.547 80.5104 153.789 80.4576 153.978 80.3414C154.177 80.2252 154.335 80.0773 154.45 79.8977C154.566 79.7181 154.66 79.4963 154.723 79.2638C154.776 79.0314 154.807 78.7884 154.807 78.5349C154.807 78.2919 154.776 78.049 154.723 77.806C154.671 77.5736 154.576 77.3623 154.45 77.1721C154.324 76.982 154.167 76.8341 153.978 76.7284C153.778 76.6122 153.547 76.5594 153.274 76.5594C153.001 76.5594 152.76 76.6122 152.571 76.7284C152.371 76.8446 152.214 76.9925 152.099 77.1721C151.983 77.3517 151.889 77.5736 151.826 77.806C151.773 78.0384 151.742 78.2814 151.742 78.5349Z" fill="white"/>
<path d="M157.474 75.2068H160.561C160.844 75.1962 161.128 75.2174 161.411 75.2596C161.695 75.3019 161.947 75.3864 162.178 75.5132C162.409 75.6399 162.587 75.809 162.734 76.0202C162.87 76.2421 162.944 76.5168 162.944 76.8654C162.944 77.1612 162.86 77.4253 162.702 77.6577C162.545 77.8901 162.335 78.0697 162.073 78.207C162.419 78.3127 162.702 78.5029 162.902 78.7881C163.101 79.0733 163.206 79.4008 163.206 79.7811C163.206 80.1826 163.143 80.5101 163.007 80.7742C162.87 81.0383 162.692 81.2496 162.461 81.408C162.23 81.5665 161.957 81.6827 161.642 81.7461C161.327 81.8095 160.991 81.8517 160.645 81.8517H157.474V75.2068ZM159.196 77.8267H160.529C160.603 77.8267 160.687 77.8162 160.771 77.795C160.855 77.7739 160.928 77.7422 161.002 77.6894C161.065 77.6366 161.128 77.5732 161.17 77.4887C161.212 77.4042 161.243 77.3091 161.243 77.1929C161.243 76.9499 161.17 76.7809 161.023 76.6858C160.876 76.5907 160.718 76.5485 160.54 76.5485H159.206V77.8267H159.196ZM159.196 80.4678H160.571C160.844 80.4678 161.065 80.415 161.233 80.2988C161.401 80.1826 161.495 79.9924 161.495 79.7177C161.495 79.4219 161.411 79.2212 161.222 79.105C161.044 78.9888 160.823 78.936 160.561 78.936H159.185V80.4678H159.196Z" fill="white"/>
<path d="M164.151 75.207H165.873V81.852H164.151V75.207Z" fill="white"/>
<path d="M167.07 75.207H168.792V80.3624H171.868V81.852H167.07V75.207Z" fill="white"/>
<path d="M172.719 75.207H174.44V81.852H172.719V75.207Z" fill="white"/>
<path d="M177.433 75.207H179.186L181.653 81.852H179.858L179.448 80.6582H177.149L176.729 81.852H174.965L177.433 75.207ZM177.538 79.3799H179.039L178.304 77.0558H178.283L177.538 79.3799Z" fill="white"/>
<path d="M182.147 75.207H185.517C185.811 75.207 186.094 75.2387 186.367 75.3127C186.64 75.3761 186.892 75.4923 187.113 75.6402C187.333 75.7881 187.501 75.9888 187.638 76.2212C187.774 76.4536 187.837 76.7389 187.837 77.0769C187.837 77.4361 187.753 77.7742 187.585 78.0805C187.417 78.3869 187.155 78.6087 186.808 78.7461V78.7672C186.976 78.8095 187.123 78.8834 187.239 78.9996C187.354 79.1158 187.449 79.2426 187.522 79.3905C187.596 79.5384 187.648 79.6969 187.69 79.8659C187.732 80.0349 187.753 80.2039 187.763 80.3518C187.774 80.4152 187.774 80.5209 187.784 80.6688C187.795 80.8167 187.805 80.9646 187.826 81.1125C187.847 81.2709 187.868 81.4188 187.91 81.5456C187.952 81.6829 187.994 81.778 188.047 81.8414H186.346C186.304 81.7886 186.283 81.7041 186.252 81.609C186.22 81.5139 186.21 81.4083 186.199 81.2921C186.189 81.1864 186.178 81.0808 186.168 80.9857C186.157 80.8906 186.157 80.8167 186.147 80.7744C186.136 80.6054 186.115 80.4469 186.094 80.2779C186.073 80.1089 186.021 79.9715 185.958 79.8448C185.895 79.718 185.8 79.6123 185.674 79.5278C185.559 79.4539 185.391 79.4116 185.191 79.4116H183.889V81.8308H182.168V75.207H182.147ZM183.868 78.0911H185.307C185.569 78.0911 185.758 78.0277 185.895 77.8904C186.031 77.753 186.094 77.5629 186.094 77.3093C186.094 77.0663 186.01 76.8762 185.842 76.76C185.674 76.6438 185.464 76.591 185.223 76.591H183.858V78.0911H183.868Z" fill="white"/>
<path d="M188.824 75.207H190.546V81.852H188.824V75.207Z" fill="white"/>
<path d="M191.491 78.5349C191.491 78.0489 191.564 77.5947 191.711 77.1827C191.858 76.7601 192.068 76.4009 192.341 76.084C192.614 75.7671 192.96 75.5241 193.359 75.3445C193.758 75.1649 194.22 75.0698 194.745 75.0698C195.26 75.0698 195.722 75.1543 196.131 75.3445C196.541 75.5347 196.877 75.7671 197.15 76.084C197.423 76.4009 197.643 76.7601 197.78 77.1827C197.927 77.6052 198 78.0489 198 78.5349C198 79.0209 197.927 79.4751 197.78 79.8871C197.633 80.3097 197.423 80.6689 197.15 80.9858C196.877 81.3028 196.53 81.5457 196.131 81.7253C195.732 81.9049 195.27 82 194.745 82C194.231 82 193.769 81.9049 193.359 81.7253C192.96 81.5457 192.614 81.3028 192.341 80.9858C192.068 80.6689 191.848 80.3097 191.711 79.8871C191.564 79.4646 191.491 79.0209 191.491 78.5349ZM193.212 78.5349C193.212 78.7884 193.244 79.0209 193.296 79.2638C193.349 79.5068 193.443 79.7075 193.569 79.8977C193.695 80.0879 193.853 80.2358 194.042 80.3414C194.241 80.4576 194.472 80.5104 194.745 80.5104C195.018 80.5104 195.26 80.4576 195.449 80.3414C195.648 80.2252 195.806 80.0773 195.921 79.8977C196.037 79.7181 196.131 79.4963 196.194 79.2638C196.247 79.0314 196.278 78.7884 196.278 78.5349C196.278 78.2919 196.247 78.049 196.194 77.806C196.142 77.5736 196.047 77.3623 195.921 77.1721C195.795 76.982 195.638 76.8341 195.449 76.7284C195.249 76.6122 195.018 76.5594 194.745 76.5594C194.472 76.5594 194.231 76.6122 194.042 76.7284C193.842 76.8446 193.685 76.9925 193.569 77.1721C193.454 77.3517 193.359 77.5736 193.296 77.806C193.244 78.0384 193.212 78.2814 193.212 78.5349Z" fill="white"/>
<path d="M87.047 0.750064L78.3748 11.8426C78.1019 12.1912 77.5559 11.9905 77.5559 11.5573V0.464829C77.5559 0.211286 77.7659 0 78.0179 0H86.69C87.0785 0 87.2884 0.4437 87.047 0.750064Z" fill="white"/>
<path d="M95.9816 15.2654L87.8869 15.2126C87.7504 15.2126 87.6139 15.276 87.5194 15.3922L80.9365 23.8119C80.8526 23.9281 80.7161 23.9915 80.5796 23.9915H78.0073C77.7554 23.9915 77.5454 23.7802 77.5454 23.5267V17.262C77.5454 17.1564 77.5769 17.0613 77.6399 16.9768L90.7741 0.179593C90.8686 0.0633857 91.0051 0 91.1415 0H109.851C110.229 0 110.449 0.4437 110.208 0.750064L106.092 6.01108C106.008 6.12729 105.872 6.19067 105.735 6.19067H95.2886C94.9317 6.19067 94.5852 6.3597 94.3647 6.64494L93.2728 8.02886C93.0314 8.33522 93.2518 8.77892 93.6298 8.77892H100.328C100.706 8.77892 100.927 9.22262 100.685 9.52899L96.3385 15.0858C96.2545 15.202 96.1181 15.2654 95.9816 15.2654Z" fill="white"/>
<path d="M120.455 0.464829V5.72584C120.455 5.97939 120.245 6.19067 119.993 6.19067H110.187C109.809 6.19067 109.588 5.74697 109.83 5.44061L113.945 0.179593C114.029 0.0633857 114.166 0 114.302 0H119.993C120.245 0 120.455 0.211286 120.455 0.464829Z" fill="white"/>
<path d="M104.79 8.77881H119.993C120.245 8.77881 120.455 8.99009 120.455 9.24364V23.5266C120.455 23.7801 120.245 23.9914 119.993 23.9914H85.2936C84.9157 23.9914 84.6952 23.5477 84.9367 23.2413L89.0417 17.9803C89.1257 17.8641 89.2622 17.8007 89.3987 17.8007H111.51C111.866 17.8007 112.213 17.6317 112.433 17.3464L113.525 15.952C113.767 15.6456 113.546 15.2019 113.168 15.2019H100.475C100.097 15.2019 99.8767 14.7582 100.118 14.4518L104.423 8.94784C104.517 8.84219 104.643 8.77881 104.79 8.77881Z" fill="white"/>
</svg>
