<svg width="109" height="95" viewBox="0 0 109 95" fill="none" xmlns="http://www.w3.org/2000/svg">
<g clip-path="url(#clip0)">
<path d="M60.4788 25.9075C57.4165 25.9075 54.9252 28.4045 54.9252 31.4739C54.9252 34.0011 56.9762 36.0584 59.4976 36.0569C61.5877 36.0569 63.2871 34.3535 63.2871 32.2601C63.2871 30.513 61.8686 29.0913 60.1256 29.0913C58.6591 29.0913 57.4661 30.2871 57.4661 31.757C57.4661 32.361 57.7005 32.9303 58.1272 33.358C58.554 33.7857 59.1204 34.0207 59.7245 34.0207C60.2413 34.0207 60.7282 33.8189 61.0933 33.4529C61.4584 33.0854 61.6613 32.5989 61.6613 32.0809H60.3585C60.3585 32.251 60.2924 32.4092 60.1737 32.5297C60.0535 32.6501 59.8958 32.7149 59.726 32.7149C59.2001 32.7149 58.7718 32.2857 58.7718 31.7586C58.7718 31.01 59.3804 30.4001 60.1271 30.4001C61.1519 30.4001 61.9858 31.2359 61.9858 32.2631C61.9858 33.6366 60.8709 34.7541 59.5006 34.7541C57.6975 34.7541 56.231 33.2842 56.231 31.4769C56.231 29.1274 58.1377 27.2178 60.4818 27.2178C63.5004 27.2178 65.9571 29.6802 65.9571 32.7059C65.9571 34.5824 65.2284 36.346 63.9046 37.6729C62.5809 38.9997 60.8213 39.7302 58.9491 39.7302C55.5353 39.7302 52.5662 37.7979 51.0666 34.9665C50.9945 35.6668 50.9509 36.3716 50.8788 37.072C52.751 39.4832 55.672 41.0359 58.9491 41.0359C61.1684 41.0359 63.2555 40.17 64.8257 38.5961C66.3959 37.0223 67.2599 34.9303 67.2599 32.7059C67.2584 28.9543 64.2172 25.906 60.4788 25.9075Z" fill="#FFCE00"/>
<path d="M64.9189 13.6298C63.807 12.5154 62.3284 11.9009 60.7552 11.9009C59.182 11.9009 57.7035 12.5139 56.5916 13.6298C55.8373 14.3859 55.2844 15.2685 54.9343 16.2097C55.1206 16.2037 55.2949 16.2534 55.4241 16.3995C55.5263 16.517 55.6255 16.6405 55.7186 16.7685C56.0176 15.8603 56.5255 15.0064 57.2452 14.285C58.1828 13.3452 59.43 12.8271 60.7552 12.8271C62.0805 12.8271 63.3277 13.3452 64.2653 14.285C65.7784 15.8016 65.7784 18.267 64.2653 19.7837C63.0918 20.9599 61.1805 20.9599 60.007 19.7837C59.1039 18.8785 59.1039 17.4056 60.007 16.5004C60.6936 15.8121 61.8101 15.8121 62.4967 16.5004C63.0091 17.0155 63.0091 17.8514 62.4967 18.3664C62.1226 18.7415 61.5125 18.7415 61.1384 18.3664C60.8755 18.1014 60.8755 17.6721 61.1384 17.4071C61.2225 17.3227 61.3352 17.2745 61.4554 17.2745C61.5756 17.2745 61.6883 17.3212 61.7725 17.4071L62.4261 16.7519C62.1662 16.4929 61.8221 16.3498 61.4554 16.3498C61.0888 16.3498 60.7447 16.4929 60.4848 16.7519C60.1828 17.0547 60.016 17.4583 60.016 17.886C60.016 18.3137 60.1828 18.7174 60.4848 19.0201C61.2195 19.7565 62.4141 19.7565 63.1488 19.0201C64.0218 18.145 64.0218 16.7203 63.1488 15.8453C62.1031 14.7971 60.3991 14.7955 59.3533 15.8453C58.0897 17.1119 58.0897 19.1722 59.3533 20.4373C60.8875 21.975 63.3832 21.975 64.9174 20.4373C66.7911 18.5607 66.7911 15.5079 64.9189 13.6298Z" fill="#FFCE00"/>
<path d="M66.1931 21.954C66.3539 21.8395 66.6288 21.7025 66.8918 21.6618C66.5567 20.4284 66.7596 19.0593 67.5649 17.9463C68.6603 16.4343 70.7774 16.0984 72.286 17.1948C73.446 18.0397 73.7045 19.6723 72.863 20.835C72.2229 21.7191 70.9848 21.9163 70.1013 21.2748C69.4417 20.7943 69.2944 19.8666 69.7737 19.2054C70.1238 18.7235 70.7985 18.615 71.2808 18.966C71.6189 19.213 71.6955 19.6889 71.4491 20.0292C71.3695 20.1377 71.2538 20.21 71.12 20.2311C70.9863 20.2521 70.8541 20.2205 70.7444 20.1407L70.1358 20.9811C70.4694 21.2236 70.8766 21.3215 71.2823 21.2567C71.688 21.1919 72.0456 20.972 72.2875 20.6392C72.57 20.2506 72.6827 19.7747 72.6076 19.2988C72.5325 18.8244 72.277 18.4072 71.8894 18.1241C70.9457 17.4373 69.6205 17.6481 68.9353 18.594C68.1209 19.719 68.3703 21.2974 69.4927 22.1136C70.8375 23.0926 72.7248 22.7914 73.7015 21.4434C74.8795 19.8169 74.5174 17.5337 72.8946 16.3514C70.9247 14.9176 68.157 15.3574 66.7265 17.3334C65.6822 18.7762 65.4538 20.5669 65.9557 22.1483C66.0413 22.07 66.1255 22.0022 66.1931 21.954Z" fill="#FFCE00"/>
<path d="M37.7102 17.5007C33.1814 17.5007 28.1192 10.5411 27.9044 10.2429L28.866 9.54712C28.8825 9.57122 30.1522 11.3228 31.9147 13.0307C34.1746 15.222 36.2106 16.3561 37.8003 16.3109L37.8334 17.4992C37.7913 17.5007 37.7507 17.5007 37.7102 17.5007Z" fill="#D5E67C"/>
<path d="M37.5088 22.2763C36.3353 18.7746 37.4352 9.55296 37.4818 9.16138L38.6583 9.30445C38.6463 9.39783 37.5434 18.6481 38.6313 21.8967L37.5088 22.2763Z" fill="#D5E67C"/>
<path d="M83.2773 36.4349C83.1707 35.468 82.9693 34.3474 82.7049 33.3037C81.907 30.1651 80.472 27.4285 78.436 25.1664L78.3534 25.0746L78.2317 25.0926C78.1475 25.1047 78.0619 25.1107 77.9792 25.1062C77.8095 25.1002 77.6412 25.0941 77.4714 25.0866L76.7051 25.0595L77.0942 25.4691C79.4488 27.9511 81.0024 30.9 81.7086 34.233C82.7589 39.1774 82.1489 44.0405 79.898 48.6883C78.998 50.5467 77.6998 52.2787 76.0424 53.833C76.0184 53.8556 75.9943 53.8797 75.9703 53.9053C75.8786 53.9972 75.8336 54.0378 75.802 54.0288C75.763 54.0167 75.7509 54.0137 75.7554 53.8209C75.7569 53.7833 75.7569 53.7456 75.7569 53.711C75.7464 53.1809 75.7404 52.6417 75.7329 52.1191C75.7284 51.7275 75.7239 51.3374 75.7164 50.9459C75.6382 46.1776 75.5571 41.4109 75.4775 36.6427C75.4745 36.4966 75.4699 36.3219 75.4459 36.1442C75.4113 35.8776 75.2476 35.6999 75.0072 35.6698C74.7021 35.6321 74.4527 35.8249 74.4151 36.1276C74.3806 36.4062 74.3656 36.6999 74.3686 37.0222C74.3836 38.6623 74.3986 40.304 74.4151 41.9441C74.4422 44.7348 74.4692 47.6205 74.4918 50.4579C74.4933 50.5437 74.4963 50.6311 74.4993 50.7154C74.5083 50.9338 74.5173 51.1447 74.4767 51.345C74.4196 51.2802 74.3761 51.1959 74.3235 51.0904C74.2949 51.0332 74.2649 50.9745 74.2303 50.9157C72.6015 48.1988 70.4709 46.0044 67.897 44.396C67.3305 44.0405 67.1051 43.6459 67.0931 42.9863C66.9849 36.6728 68.7519 31.6501 72.4948 27.6304C73.2221 26.8502 74.0635 26.1288 75.0703 25.424L75.6473 25.0203L74.944 25.0038C74.5459 24.9947 74.2423 24.9902 73.9553 24.9902C73.8998 24.9902 73.8472 24.9842 73.7976 24.9721L73.6894 24.9465L73.6022 25.0158C71.4926 26.674 69.7571 28.7795 68.4439 31.2781C66.6904 34.614 65.8715 38.3159 65.9376 42.5947C65.9391 42.7242 65.9451 43.0495 65.909 43.158C65.7979 43.1474 65.5048 43.0149 65.3891 42.9622C61.7078 41.2949 58.1798 40.5449 54.6036 40.6699C53.0755 40.7241 51.576 40.9485 50.1455 41.3356L50.0388 41.3642L49.9051 41.6639C49.8104 41.8763 49.7173 42.0886 49.6226 42.3025L49.4167 42.7679L49.9021 42.6158C51.9471 41.9757 54.1288 41.7166 56.3872 41.8477C60.5944 42.0902 64.4861 43.4426 67.951 45.8674C70.7789 47.8449 72.9081 50.4805 74.2799 53.6975C74.3009 53.7472 74.325 53.7923 74.349 53.836C74.4362 53.9987 74.4302 54.0167 74.4106 54.0423C74.3686 54.092 74.337 54.1026 74.1176 54.0243C74.0771 54.0092 74.0365 53.9957 73.9959 53.9836C70.8751 53.0393 67.7542 52.095 64.6334 51.1492C62.7311 50.5724 60.8288 49.997 58.9266 49.4202C58.7508 49.3675 58.5735 49.3133 58.3977 49.2591C57.7305 49.0542 57.0393 48.8434 56.3496 48.6687C56.3076 48.6581 56.2565 48.6416 56.2024 48.6235C55.977 48.5512 55.696 48.4593 55.4571 48.5889C55.3249 48.6596 55.2332 48.7831 55.1836 48.9548C55.1311 49.1401 55.1761 49.2771 55.2227 49.36C55.3549 49.5964 55.6494 49.6777 55.8868 49.744C55.9244 49.7546 55.9605 49.7651 55.9935 49.7741C57.723 50.3043 59.4825 50.8344 61.1849 51.348L64.9609 52.4881C67.8263 53.3526 70.7909 54.2472 73.7029 55.1297L73.7615 55.1478C73.9478 55.202 74.0801 55.2472 74.0966 55.3361C74.1041 55.3797 74.0891 55.4084 73.8998 55.5138C73.8532 55.5394 73.8051 55.5665 73.76 55.5966C73.7225 55.6222 73.6834 55.6463 73.6458 55.6704C73.9178 55.7969 74.1717 55.9505 74.4196 56.1177C74.5143 56.0545 74.6075 56.0048 74.6916 55.9701C74.7021 55.9671 74.7126 55.9611 74.7232 55.9581C74.7442 55.9385 74.7637 55.9204 74.7833 55.9008C74.7983 55.8858 74.8133 55.8707 74.8283 55.8557C74.8329 55.8496 74.8419 55.8391 74.8554 55.824C74.9125 55.7457 74.9801 55.6734 75.0402 55.5966C75.2701 55.2999 75.4775 54.9882 75.7043 54.69C75.8967 54.4369 76.2287 54.1824 76.5758 54.0664C76.7141 53.8857 76.8989 53.7291 77.0311 53.6357C77.0717 53.6071 77.2896 53.4264 77.0762 53.6101C77.1228 53.5694 77.1709 53.5318 77.2174 53.4911C77.3392 53.3842 77.4564 53.2727 77.5706 53.1583C77.5811 53.1477 77.6502 53.0754 77.6863 53.0378C77.7208 52.9971 77.805 52.9053 77.8004 52.9083C77.9026 52.7893 78.0033 52.6673 78.101 52.5438C78.3053 52.2863 78.4991 52.0212 78.681 51.7486C78.678 51.7516 78.7516 51.6402 78.7756 51.6025C78.7997 51.5633 78.8523 51.4775 78.8583 51.4655C78.9334 51.3389 79.0055 51.2109 79.0746 51.0814C79.2099 50.8284 79.4352 50.5964 79.6997 50.4323C79.8545 50.1582 80.0017 49.8796 80.137 49.5949C80.4495 48.9428 80.6719 48.2545 81.0069 47.6114C81.336 46.9789 81.7147 46.3749 82.0317 45.7364C82.3548 45.0872 82.5005 44.4411 82.6718 43.7333C82.8611 42.9516 83.055 42.1685 83.1571 41.3703C83.2563 40.5976 83.1692 39.8416 83.1256 39.0675C83.0775 38.2361 83.0745 37.3942 83.2278 36.5734C83.2413 36.5343 83.2578 36.4846 83.2773 36.4349Z" fill="#A26D8D"/>
<path d="M82.0918 26.5806C80.8056 23.5323 78.9635 20.7943 76.6179 18.4433C74.2724 16.0923 71.5407 14.2459 68.4995 12.9567C65.3501 11.6223 62.0054 10.9446 58.557 10.9446C55.1085 10.9446 51.7638 11.6208 48.6144 12.9567C46.9496 13.6615 45.3794 14.5351 43.9128 15.5652C44.1427 15.892 44.3756 16.2173 44.6055 16.5442C48.5588 13.7655 53.3716 12.1329 58.5555 12.1329C71.9855 12.1329 82.9122 23.085 82.9122 36.5463C82.9122 47.3644 75.8561 56.5605 66.1149 59.7549C66.2441 60.1314 66.3523 60.5139 66.4515 60.8995C67.1427 60.6751 67.8249 60.419 68.498 60.1329C71.5392 58.8437 74.2709 56.9972 76.6164 54.6463C78.962 52.2953 80.8026 49.5572 82.0903 46.509C83.4216 43.3522 84.0978 39.9997 84.0978 36.5433C84.0993 33.0899 83.4231 29.7358 82.0918 26.5806Z" fill="#67B96C"/>
<path d="M27.9014 18.0623C27.8818 18.005 27.4371 16.6556 27.1831 15.029C26.8255 12.7428 27.0299 11.0891 27.7872 10.1117C27.8052 10.0876 27.8127 10.053 27.8052 10.0168C27.5137 8.62672 26.7369 3.83591 28.9757 0.57526C29.2086 0.236394 29.5753 0.0270501 29.984 0.00144686C30.3881 -0.0241564 30.7758 0.135487 31.0463 0.439714L45.3358 16.5095L44.4508 17.3002L30.1613 1.2304C30.1267 1.19124 30.0861 1.18522 30.0576 1.18823C30.032 1.18974 29.9855 1.20028 29.9524 1.24847C27.981 4.12055 28.6992 8.4987 28.9652 9.77284C29.0448 10.1509 28.9562 10.5409 28.7233 10.8406C27.5918 12.2985 28.5595 16.2761 29.0268 17.6857L27.9014 18.0623Z" fill="#009788"/>
<path d="M52.1349 22.085C50.984 22.085 50.0479 21.1467 50.0479 19.9931C50.0479 18.8394 50.984 17.9011 52.1349 17.9011C53.2859 17.9011 54.222 18.8394 54.222 19.9931C54.222 21.1467 53.2859 22.085 52.1349 22.085ZM52.1349 19.0894C51.6376 19.0894 51.2334 19.4945 51.2334 19.9931C51.2334 20.4916 51.6376 20.8967 52.1349 20.8967C52.6323 20.8967 53.0365 20.4916 53.0365 19.9931C53.0365 19.4945 52.6323 19.0894 52.1349 19.0894Z" fill="#009788"/>
<path d="M56.1499 25.9045L56.1348 24.302L78.2317 24.5641L57.6074 21.5836L57.7561 19.9932L80.3729 23.8592L80.3068 25.4557L56.1499 25.9045Z" fill="#009788"/>
<path d="M48.4641 53.5846C46.6761 49.9098 46.8789 47.1853 47.3643 45.5467C47.5431 44.9427 47.8466 44.3554 48.2673 43.7981C49.6256 41.9999 50.3183 38.6293 50.2207 34.3099C50.2192 34.2135 50.2176 34.1427 50.2176 34.1005C50.2176 29.12 52.6653 27.4557 52.9073 27.3036C55.4647 25.6153 56.8636 23.8351 57.0649 22.0143C57.2723 20.1302 56.1618 18.5413 55.1942 17.5398C54.6533 16.9795 53.9591 16.5804 53.1867 16.3846C49.6076 15.478 46.2689 16.2988 43.2592 18.826C40.9738 20.7462 39.7462 22.9797 39.7342 23.0023L38.6929 22.436C38.7455 22.3381 40.0211 20.0067 42.4673 17.9419C45.7445 15.1752 49.552 14.2385 53.4767 15.2325C54.4624 15.4825 55.3505 15.9945 56.0446 16.7129C57.1896 17.8967 58.4984 19.8004 58.2414 22.1438C58.001 24.3352 56.4218 26.406 53.5504 28.2991L53.5278 28.3127C53.4452 28.3639 51.4002 29.6968 51.4002 34.099C51.4002 34.1367 51.4017 34.1984 51.4032 34.2813C51.5084 38.935 50.7496 42.4728 49.2094 44.5135C48.8743 44.9563 48.6354 45.4172 48.4972 45.884C48.072 47.3193 47.9052 49.7305 49.5265 53.0635L48.4641 53.5846Z" fill="#67B96C"/>
<path d="M58.3391 61.907C56.1844 61.907 54.1018 61.6947 52.1379 61.2745C49.3537 60.6781 46.8023 59.6585 44.5544 58.2443C38.4464 54.4023 34.5503 47.7018 32.9741 38.328L34.1431 38.1307C35.6607 47.1566 39.3765 53.5845 45.184 57.2382C50.0163 60.2775 55.4466 60.8031 59.1535 60.7082C62.061 60.6344 64.3779 60.1811 65.4523 59.9311L63.1383 54.5152C57.989 55.5619 53.328 55.4068 49.2815 54.0544C45.9278 52.9339 42.9917 50.994 40.5546 48.2921C36.4225 43.7107 35.1829 38.5825 35.1333 38.3671L36.2872 38.0945C36.3053 38.1683 37.5314 43.1866 41.4666 47.5301C46.7226 53.3345 54.0913 55.2592 63.3682 53.2531L63.846 53.1507L67.0796 60.7202L66.4365 60.907C66.3133 60.9431 63.3637 61.7896 59.1835 61.8965C58.9025 61.904 58.6201 61.907 58.3391 61.907ZM35.7118 38.2301L36.2887 38.093L35.7118 38.2301Z" fill="#009788"/>
<path d="M41.5297 34.9619C38.3848 34.3459 35.3947 32.9709 32.642 30.8774C30.4527 29.2117 28.4092 27.0897 26.5671 24.57C23.4402 20.2913 21.9977 16.3951 21.9376 16.2324L23.051 15.8228C23.0661 15.8619 24.5085 19.7491 27.5437 23.8938C30.319 27.6846 35.0371 32.4799 41.7581 33.7962L41.5297 34.9619Z" fill="#D5E67C"/>
<path d="M23.5995 25.5189C19.6928 25.5189 15.3383 23.939 15.0934 23.8486L15.5021 22.7341C15.5787 22.7627 23.1818 25.5219 26.8255 23.7387L27.3454 24.8065C26.2816 25.3246 24.9683 25.5189 23.5995 25.5189Z" fill="#D5E67C"/>
<path d="M25.35 31.3895C25.075 31.3895 24.7925 31.3864 24.5041 31.3804C21.5229 31.3126 18.9039 30.9226 18.7928 30.906L18.9686 29.7313C21.843 30.1635 29.721 30.8488 31.6413 28.8457L32.4963 29.6695C31.3994 30.8111 28.9983 31.3895 25.35 31.3895Z" fill="#D5E67C"/>
<path d="M27.8443 37.4258L27.6429 36.2556C29.5948 35.9183 34.8448 34.5447 35.6922 32.269L36.8026 32.6847C36.2602 34.1426 34.5638 35.3866 31.76 36.3821C29.7555 37.0915 27.9224 37.4123 27.8443 37.4258ZM27.7436 36.84L27.6429 36.2541L27.7436 36.84Z" fill="#D5E67C"/>
<path d="M33.5616 38.8189C32.0605 38.8189 30.615 38.4122 29.2597 37.5959C28.7548 37.5839 27.2703 37.4935 25.6144 36.879C23.0315 35.9212 21.2299 34.1244 20.3855 31.6726C19.8445 31.4948 18.7191 31.0505 17.6087 30.1409C16.2609 29.0369 14.6892 27.0278 14.6967 23.6587C14.2474 23.4163 13.4676 22.9193 12.6818 22.0533C11.6119 20.8725 10.3167 18.7429 10.2205 15.3046C10.207 14.8317 10.3948 14.3753 10.7374 14.05C11.077 13.7262 11.5413 13.562 12.0086 13.5982C13.8448 13.7428 17.6538 14.1735 22.5297 15.4235C28.5234 16.9597 34.2137 19.2279 39.4427 22.1662C40.0437 22.3439 43.8723 23.5895 44.9737 26.7206C45.6739 28.7101 45.1164 30.9843 43.3163 33.4783L43.2938 33.5069C43.2232 33.5928 41.5373 35.632 38.9724 37.1667C37.1317 38.2676 35.3091 38.8189 33.5616 38.8189ZM29.5948 36.4061L29.7435 36.4995C32.3385 38.1246 35.2309 38.0101 38.3413 36.1606C40.6357 34.7961 42.2269 32.9361 42.3697 32.7645C43.9174 30.6123 44.4192 28.7131 43.8587 27.1182C42.8971 24.3771 39.0956 23.3003 39.058 23.2898L38.9889 23.2702L38.9258 23.234C26.8195 16.416 15.1926 15.041 11.9169 14.782C11.7817 14.7714 11.654 14.8166 11.5548 14.91C11.4557 15.0049 11.4031 15.1329 11.4061 15.2699C11.4737 17.7113 12.1844 19.7083 13.5172 21.2069C14.5119 22.3244 15.5051 22.734 15.5156 22.7385L15.9018 22.8952L15.8883 23.3139C15.7951 25.8154 16.626 27.8035 18.3585 29.2222C19.6582 30.2855 20.9775 30.6123 20.991 30.6153L21.3201 30.6951L21.4192 31.0189C22.1134 33.2931 23.6641 34.8895 26.0262 35.7661C27.8172 36.4302 29.4039 36.4107 29.419 36.4107L29.5948 36.4061Z" fill="#009788"/>
<path d="M0.172804 81.7525L0.264461 81.6607H0.830933L0.924093 81.7525C0.96316 82.7405 1.01425 83.3459 1.08036 83.5658C1.14497 83.7857 1.35383 84.0176 1.70393 84.2601C2.05403 84.5041 2.51983 84.7029 3.10283 84.8565C3.68433 85.0117 4.27184 85.0885 4.86536 85.0885C5.68125 85.0885 6.41602 84.9379 7.06663 84.6366C7.71725 84.3354 8.22362 83.8941 8.58574 83.3098C8.94786 82.7269 9.12967 82.0718 9.12967 81.3459C9.12967 80.8368 9.04252 80.3925 8.86973 80.013C8.69693 79.635 8.45351 79.3323 8.14097 79.1033C7.82844 78.8759 7.47233 78.7057 7.07114 78.5943C6.66995 78.4828 6.07343 78.3609 5.28007 78.2298C4.50924 78.1063 3.90671 77.9949 3.47096 77.894C3.03522 77.7931 2.60247 77.6394 2.17123 77.4301C1.73999 77.2208 1.37937 76.9572 1.09088 76.6364C0.802384 76.3156 0.570987 75.9225 0.39819 75.4557C0.225394 74.9888 0.138244 74.4888 0.138244 73.9556C0.138244 72.5113 0.638603 71.3275 1.64082 70.4058C2.64154 69.4826 3.98635 69.0217 5.67374 69.0217C6.34389 69.0217 7.07414 69.1046 7.863 69.2702C8.65335 69.4359 9.37159 69.6814 10.0177 70.0052L10.0988 70.1437C9.92904 70.8546 9.82537 71.8652 9.7863 73.1785L9.68262 73.2719H9.08159L8.98843 73.1905C8.9734 72.2643 8.94936 71.6814 8.91931 71.442C8.88776 71.2025 8.53766 70.9058 7.86751 70.5504C7.19736 70.195 6.46861 70.0172 5.68276 70.0172C5.02763 70.0172 4.41608 70.1483 3.8451 70.4103C3.27413 70.6724 2.84289 71.0865 2.55138 71.6498C2.25838 72.2131 2.11263 72.7884 2.11263 73.3758C2.11263 73.8321 2.20128 74.2342 2.37859 74.5866C2.55589 74.9376 2.78428 75.2162 3.06677 75.421C3.34775 75.6258 3.67531 75.7779 4.04946 75.8789C4.4236 75.9798 5.10727 76.1033 6.10047 76.2493C7.46331 76.4421 8.45652 76.6756 9.07558 76.9497C9.69614 77.2238 10.192 77.6575 10.5661 78.2524C10.9403 78.8473 11.1266 79.5657 11.1266 80.4061C11.1266 82.0507 10.458 83.4212 9.12216 84.5177C7.78486 85.6141 6.16509 86.1623 4.26282 86.1623C2.66859 86.1623 1.26969 85.8761 0.0676232 85.3053L-0.00149536 85.1547C0.0766387 84.6713 0.135239 83.5372 0.172804 81.7525Z" fill="#4B2951"/>
<path d="M16.925 85.8296L16.8214 85.7362V85.1338L16.925 85.0419C17.487 85.0344 17.8491 85.0058 18.0114 84.9546C18.1737 84.9049 18.3179 84.804 18.4456 84.6533C18.5734 84.5027 18.8288 84.0103 19.2135 83.1759L20.4275 80.5342L23.5709 73.3985C24.1645 72.0008 24.7535 70.6032 25.3395 69.2056H26.0908L31.0252 80.8354L31.6834 82.3882C31.8757 82.828 32.0981 83.3069 32.3475 83.825C32.5984 84.3416 32.7712 84.6473 32.8674 84.7407C32.9636 84.8326 33.0823 84.9049 33.225 84.9546C33.3677 85.0043 33.6848 85.0344 34.1791 85.0419L34.2723 85.1338V85.7362L34.1791 85.8296C33.3632 85.7603 32.627 85.7257 31.9719 85.7257C30.6932 85.7648 29.4145 85.7995 28.1358 85.8296L28.0441 85.7362V85.1338L28.1358 85.0419C28.9982 85.0268 29.5377 84.9892 29.754 84.932C29.9689 84.8732 30.0771 84.7407 30.0771 84.5329C30.0771 84.3627 30.023 84.1383 29.9148 83.8611L28.4934 80.3279H21.8024L20.5432 83.2934C20.3194 83.8265 20.2082 84.2166 20.2082 84.4636C20.2082 84.6564 20.3118 84.7994 20.5207 84.8928C20.7281 84.9847 21.2525 85.0359 22.0924 85.0434L22.1961 85.1353V85.7377L22.1029 85.8311C21.1097 85.7693 20.2382 85.7377 19.4914 85.7377C18.644 85.7377 17.7875 85.7678 16.925 85.8296ZM22.1946 79.3324H28.0426L25.1426 72.3472L22.1946 79.3324Z" fill="#4B2951"/>
<path d="M39.9866 69.451L40.0783 69.3696C41.9896 69.4314 43.0909 69.4615 43.3839 69.4615C43.6454 69.4615 44.7513 69.4314 46.7001 69.3696L46.7918 69.451V70.0308L46.7001 70.1121C46.1682 70.1272 45.758 70.1513 45.4695 70.1814C45.181 70.213 44.9707 70.2703 44.8399 70.3546C44.7092 70.4404 44.6221 70.6377 44.58 70.951C44.5379 71.2643 44.5169 71.698 44.5169 72.2538L44.4943 74.918V80.0371C44.4943 81.3188 44.5019 82.2149 44.5169 82.724L44.574 84.727H46.9315C48.8113 84.727 49.9848 84.7044 50.4506 84.6577C50.9164 84.6111 51.3656 84.4996 51.7969 84.3219C51.881 84.1291 52.0027 83.6848 52.1605 82.9905C52.3183 82.2962 52.4009 81.8941 52.4084 81.7857L52.5121 81.6938H53.0786L53.1597 81.7857C53.0981 82.0944 53.035 82.6938 52.9689 83.5809C52.9043 84.4695 52.8712 85.1864 52.8712 85.7346L52.7781 85.8265C51.3145 85.7798 49.3928 85.7572 47.0112 85.7572L43.6364 85.7346C42.8656 85.7346 42.0797 85.7647 41.2788 85.8265L41.1872 85.7346V85.352L41.2788 85.2361C41.7566 84.9891 42.0181 84.8385 42.0647 84.7843C42.1113 84.73 42.1593 84.2315 42.2089 83.2902C42.2585 82.3474 42.2841 81.2134 42.2841 79.885V74.9165L42.2615 72.6574C42.254 71.7778 42.233 71.21 42.1984 70.9555C42.1638 70.701 42.1098 70.5308 42.0361 70.445C41.9625 70.3606 41.8228 70.2913 41.6139 70.2371C41.4066 70.1829 40.8927 70.1407 40.0768 70.1091L39.9851 70.0278V69.451H39.9866Z" fill="#4B2951"/>
<path d="M64.5627 85.9455C64.447 85.6051 63.9662 84.3084 63.1188 82.0538L59.1895 72.3125C58.7433 71.201 58.4608 70.5685 58.3466 70.4179C58.2309 70.2672 57.7681 70.1648 56.9597 70.1106L56.856 70.0067V69.4735L56.9597 69.3696C58.1392 69.4314 59.1399 69.4615 59.9648 69.4615C60.7357 69.4615 61.7559 69.4314 63.0271 69.3696L63.1188 69.4615V70.0986L63.0271 70.1904C62.0955 70.1904 61.538 70.2191 61.3577 70.2778C61.1774 70.3365 61.0858 70.4465 61.0858 70.6076C61.0858 70.701 61.209 71.1122 61.4554 71.8411C61.7018 72.5715 61.9212 73.186 62.1135 73.689L65.7302 82.852L68.7459 75.2539C68.9532 74.7373 69.2583 73.9029 69.6595 72.7523C70.0607 71.6016 70.2605 70.9103 70.2605 70.6784C70.2605 70.4856 70.1658 70.3621 69.9765 70.3079C69.7872 70.2537 69.2237 70.1889 68.2831 70.1106L68.1794 70.0187V69.463L68.2831 69.3711C69.6309 69.4329 70.4904 69.463 70.86 69.463C71.1605 69.463 71.9389 69.4329 73.195 69.3711L73.2867 69.463V70.0187L73.195 70.1106C72.6406 70.1332 72.3055 70.1769 72.1898 70.2386C72.0741 70.3004 71.9719 70.4209 71.8833 70.5971C71.7946 70.7748 71.5197 71.3848 71.0569 72.427L67.4522 81.3233C66.6438 83.3083 66.0698 84.8491 65.7302 85.9455H64.5627Z" fill="#4B2951"/>
<path d="M79.1198 69.3696L80.5637 69.4163C81.5119 69.4464 82.1309 69.463 82.4239 69.463C82.6854 69.463 83.7913 69.4329 85.7401 69.3696L85.8333 69.451V70.0308L85.7401 70.1121C85.2082 70.1272 84.798 70.1513 84.5095 70.1814C84.221 70.213 84.0107 70.2703 83.8799 70.3546C83.7492 70.4404 83.6621 70.6377 83.62 70.951C83.5779 71.2643 83.5569 71.698 83.5569 72.2538L83.5343 74.918V80.2811L83.5464 82.5402C83.5539 83.4137 83.5779 83.977 83.6155 84.2315C83.6545 84.4861 83.7102 84.6562 83.7823 84.7406C83.8559 84.8264 83.9956 84.8972 84.2045 84.9544C84.4134 85.0117 84.9242 85.0569 85.7416 85.087L85.8348 85.1563V85.7361L85.7416 85.828C85.7026 85.828 85.0249 85.8054 83.7071 85.7587C83.1602 85.7436 82.732 85.7361 82.4239 85.7361C82.185 85.7361 81.0836 85.7662 79.1198 85.828L79.0266 85.7361V85.1563L79.1198 85.087C79.8365 85.0569 80.3143 85.0177 80.5532 84.971C80.7921 84.9243 80.9514 84.8656 81.0325 84.7918C81.1137 84.718 81.1783 84.5614 81.2294 84.3234C81.2805 84.0854 81.309 83.5508 81.3165 82.7255L81.3286 80.2811V74.918L81.306 72.6589C81.2985 71.7778 81.2775 71.2116 81.2429 70.957C81.2084 70.7025 81.1543 70.5323 81.0806 70.4465C81.007 70.3621 80.8673 70.2913 80.6584 70.2386C80.4511 70.1844 79.9387 70.1422 79.1213 70.1106L79.0281 70.0293V69.4495L79.1198 69.3696Z" fill="#4B2951"/>
<path d="M91.6527 85.8296L91.5491 85.7362V85.1338L91.6527 85.0419C92.2147 85.0344 92.5768 85.0058 92.7391 84.9546C92.9014 84.9049 93.0456 84.804 93.1719 84.6533C93.2981 84.5027 93.555 84.0103 93.9397 83.1759L95.1538 80.5342L98.2971 73.3985C98.8907 72.0008 99.4797 70.6032 100.066 69.2056H100.817L105.751 80.8354L106.41 82.3882C106.602 82.828 106.824 83.3069 107.074 83.825C107.325 84.3416 107.497 84.6473 107.594 84.7407C107.69 84.8326 107.81 84.9049 107.951 84.9546C108.094 85.0043 108.411 85.0344 108.905 85.0419L108.997 85.1338V85.7362L108.905 85.8296C108.089 85.7603 107.353 85.7257 106.698 85.7257C105.419 85.7648 104.141 85.7995 102.862 85.8296L102.77 85.7362V85.1338L102.862 85.0419C103.724 85.0268 104.264 84.9892 104.48 84.932C104.697 84.8732 104.803 84.7407 104.803 84.5329C104.803 84.3627 104.749 84.1383 104.641 83.8611L103.22 80.3279H96.5286L95.2694 83.2934C95.0456 83.8265 94.9344 84.2166 94.9344 84.4636C94.9344 84.6564 95.0381 84.7994 95.2469 84.8928C95.4558 84.9847 95.9787 85.0359 96.8186 85.0434L96.9223 85.1353V85.7377L96.8291 85.8311C95.8359 85.7693 94.9644 85.7377 94.2176 85.7377C93.3717 85.7377 92.5167 85.7678 91.6527 85.8296ZM96.9223 79.3324H102.77L99.8703 72.3472L96.9223 79.3324Z" fill="#4B2951"/>
<path d="M5.18238 91.0633H6.66242C6.74656 91.0633 6.79014 91.0813 6.79014 91.116C6.79014 91.1521 6.75858 91.1717 6.69547 91.1777C6.55573 91.1913 6.45206 91.2304 6.38594 91.2937C6.31833 91.357 6.26874 91.4684 6.23418 91.6281C6.19962 91.7877 6.1831 92.1296 6.1831 92.6552C6.1831 93.2847 6.20113 93.72 6.23719 93.964C6.27325 94.2064 6.38745 94.3992 6.57978 94.5423C6.77211 94.6854 7.03355 94.7562 7.36412 94.7562C7.71122 94.7562 7.97417 94.6899 8.15598 94.5574C8.33779 94.4248 8.45499 94.229 8.50909 93.9685C8.56318 93.7079 8.59022 93.1432 8.59022 92.2726C8.59022 91.8253 8.54364 91.5317 8.45199 91.3916C8.35883 91.253 8.22209 91.1823 8.04178 91.1823C7.96966 91.1823 7.9321 91.1612 7.9321 91.1205C7.9321 91.0813 7.98018 91.0618 8.07634 91.0618H9.25737C9.30996 91.0618 9.337 91.0813 9.337 91.1205C9.337 91.1476 9.31597 91.1657 9.27239 91.1702C9.12214 91.1913 9.01245 91.2395 8.94333 91.3118C8.87421 91.3841 8.82763 91.5166 8.8066 91.7079C8.78556 91.8991 8.77354 92.1808 8.77354 92.5513C8.77354 93.0151 8.75701 93.4082 8.72245 93.732C8.68789 94.0558 8.61427 94.2968 8.50007 94.4549C8.38587 94.6131 8.21458 94.7426 7.98469 94.8405C7.75479 94.9384 7.47381 94.9866 7.13873 94.9866C6.79615 94.9866 6.50465 94.9324 6.26273 94.8224C6.02232 94.7125 5.85854 94.5679 5.77289 94.3872C5.68724 94.2064 5.64517 93.9369 5.64517 93.5769L5.65719 92.7561C5.65719 92.0272 5.62564 91.5814 5.56403 91.4187C5.50243 91.256 5.3687 91.1717 5.16435 91.1687C5.09673 91.1687 5.06368 91.1521 5.06368 91.119C5.05767 91.0844 5.09974 91.0633 5.18238 91.0633Z" fill="#A26D8D"/>
<path d="M11.1551 91.0843C11.2738 91.244 11.4782 91.4925 11.7697 91.8268L12.7148 92.9247L13.6239 93.979C13.6434 93.622 13.6539 93.1582 13.6539 92.5874C13.6539 92.1596 13.6449 91.872 13.6269 91.7274C13.6088 91.5828 13.5442 91.4608 13.43 91.3614C13.3173 91.262 13.1761 91.2138 13.0063 91.2138C12.9267 91.2138 12.8876 91.1973 12.8876 91.1641C12.8876 91.1446 12.8966 91.1295 12.9131 91.122C12.9297 91.1129 13.0619 91.1039 13.3098 91.0948C13.5577 91.0858 13.7666 91.0813 13.9364 91.0813L14.3346 91.0843H14.3992C14.4593 91.0843 14.4909 91.1009 14.4909 91.1355C14.4909 91.1656 14.4638 91.1837 14.4112 91.1897C14.2129 91.2108 14.0686 91.2635 13.9815 91.3449C13.8943 91.4262 13.8417 91.5452 13.8252 91.6988C13.8087 91.8524 13.7997 92.372 13.7997 93.2546L13.7711 94.8179C13.7711 94.8977 13.7516 94.9368 13.7125 94.9368C13.702 94.9368 13.6885 94.9323 13.6719 94.9233C13.6554 94.9143 13.5668 94.8148 13.4075 94.6251C13.2482 94.4338 13.0514 94.2064 12.8185 93.9398C12.5856 93.6732 12.4023 93.4579 12.2685 93.2922C11.9755 92.9353 11.7907 92.7154 11.7126 92.6325C11.4271 92.3283 11.2588 92.134 11.2077 92.0467C11.1747 91.9879 11.1431 91.9578 11.1161 91.9578C11.095 91.9578 11.083 91.997 11.083 92.0738L11.089 92.5332C11.089 93.116 11.104 93.5799 11.1356 93.9278C11.1671 94.2757 11.2002 94.479 11.2348 94.5392C11.2693 94.5995 11.3294 94.6597 11.4151 94.7215C11.5007 94.7832 11.5924 94.8133 11.6885 94.8133C11.8193 94.8133 11.8839 94.8374 11.8839 94.8841C11.8839 94.9203 11.8478 94.9368 11.7742 94.9368L10.3542 94.9338C10.2866 94.9338 10.2536 94.9173 10.2536 94.8841C10.2536 94.845 10.2866 94.8254 10.3512 94.8254C10.5932 94.8254 10.7554 94.7712 10.8351 94.6642C10.9162 94.5573 10.9568 94.3284 10.9568 93.979L10.9327 92.9398C10.9327 92.3253 10.9162 91.9639 10.8832 91.8554C10.8501 91.7455 10.775 91.6129 10.6578 91.4563C10.5406 91.2997 10.4068 91.2108 10.2581 91.1912C10.1905 91.1837 10.1574 91.1656 10.1574 91.1385C10.1574 91.1009 10.201 91.0828 10.2881 91.0828L11.1551 91.0843Z" fill="#A26D8D"/>
<path d="M20.8017 94.9535C20.7055 94.958 20.6499 94.9595 20.6364 94.9595C20.5628 94.9595 20.4321 94.9565 20.2397 94.9489C20.0489 94.9414 19.6522 94.9384 19.0482 94.9384H18.2969C18.2698 94.9384 18.1692 94.9429 17.9949 94.9535C17.8221 94.964 17.7154 94.9685 17.6793 94.9685C17.5291 94.9685 17.4539 94.9489 17.4539 94.9098C17.4539 94.8782 17.484 94.8616 17.5426 94.8601C17.7334 94.848 17.8657 94.8074 17.9408 94.7366C18.0159 94.6658 18.067 94.5664 18.094 94.4339C18.1211 94.3028 18.1346 93.9474 18.1346 93.3691L18.1376 92.3088C18.1376 91.9654 18.1226 91.726 18.091 91.5889C18.061 91.4518 17.9979 91.3479 17.9017 91.2756C17.8056 91.2033 17.6989 91.1627 17.5787 91.1521C17.5156 91.1461 17.484 91.125 17.484 91.0889C17.484 91.0527 17.5125 91.0347 17.5696 91.0347C17.5832 91.0347 17.6087 91.0362 17.6463 91.0377C17.9588 91.0573 18.3254 91.0678 18.7447 91.0678L19.2646 91.0588C19.3171 91.0588 19.3442 91.0783 19.3442 91.1175C19.3442 91.1536 19.3156 91.1702 19.2585 91.1702C19.1188 91.1702 19.0016 91.1973 18.9084 91.253C18.8153 91.3088 18.7522 91.372 18.7221 91.4443C18.6921 91.5166 18.6755 91.6567 18.6755 91.866L18.6515 93.2667L18.6575 94.0483C18.6575 94.2908 18.668 94.4489 18.6891 94.5212C18.7101 94.595 18.7522 94.6598 18.8168 94.7185C18.8814 94.7772 19.0001 94.8059 19.1714 94.8059C19.1849 94.8059 19.3607 94.7998 19.7003 94.7878C19.9708 94.7501 20.2127 94.6176 20.4275 94.3917C20.6424 94.1643 20.7852 93.961 20.8558 93.7817C20.8768 93.7305 20.9039 93.7049 20.9354 93.7049C20.9685 93.7049 20.985 93.729 20.985 93.7757C20.985 93.8314 20.9565 94.0287 20.9009 94.3691C20.8498 94.7095 20.8152 94.9038 20.8017 94.9535Z" fill="#A26D8D"/>
<path d="M21.8144 91.0633H23.2945C23.3786 91.0633 23.4222 91.0813 23.4222 91.116C23.4222 91.1521 23.3906 91.1717 23.3275 91.1777C23.1878 91.1913 23.0841 91.2304 23.018 91.2937C22.9504 91.357 22.9008 91.4684 22.8662 91.6281C22.8317 91.7877 22.8151 92.1296 22.8151 92.6552C22.8151 93.2847 22.8332 93.72 22.8692 93.964C22.9053 94.208 23.0195 94.3992 23.2118 94.5423C23.4042 94.6854 23.6656 94.7562 23.9962 94.7562C24.3433 94.7562 24.6062 94.6899 24.788 94.5574C24.9683 94.4248 25.087 94.229 25.1411 93.9685C25.1952 93.7079 25.2223 93.1432 25.2223 92.2726C25.2223 91.8253 25.1757 91.5317 25.084 91.3916C24.9909 91.253 24.8541 91.1823 24.6738 91.1823C24.6017 91.1823 24.5641 91.1612 24.5641 91.1205C24.5641 91.0813 24.6122 91.0618 24.7084 91.0618H25.8894C25.942 91.0618 25.9691 91.0813 25.9691 91.1205C25.9691 91.1476 25.948 91.1657 25.9045 91.1702C25.7557 91.1913 25.6445 91.2395 25.5754 91.3118C25.5063 91.3841 25.4597 91.5166 25.4387 91.7079C25.4176 91.8991 25.4056 92.1808 25.4056 92.5513C25.4056 93.0151 25.3891 93.4082 25.3545 93.732C25.3199 94.0558 25.2463 94.2968 25.1321 94.4549C25.0179 94.6131 24.8466 94.7426 24.6167 94.8405C24.3868 94.9384 24.1059 94.9866 23.7708 94.9866C23.4282 94.9866 23.1367 94.9324 22.8948 94.8224C22.6529 94.7125 22.4906 94.5679 22.4049 94.3872C22.3193 94.2064 22.2772 93.9369 22.2772 93.5769L22.2892 92.7561C22.2892 92.0272 22.2577 91.5814 22.1961 91.4187C22.1345 91.256 22.0007 91.1717 21.7964 91.1687C21.7288 91.1687 21.6957 91.1521 21.6957 91.119C21.6897 91.0844 21.7318 91.0633 21.8144 91.0633Z" fill="#A26D8D"/>
<path d="M30.6992 92.307C30.6736 92.307 30.6466 92.2754 30.6195 92.2122C30.4588 91.8567 30.2454 91.5826 29.981 91.3883C29.7165 91.1956 29.434 91.0992 29.135 91.0992C28.8886 91.0992 28.6512 91.173 28.4198 91.3221C28.1899 91.4712 28.0006 91.7016 27.8548 92.0119C27.7091 92.3221 27.6369 92.6534 27.6369 93.0044C27.6369 93.5059 27.7857 93.9381 28.0862 94.3041C28.3852 94.6686 28.7594 94.8508 29.2086 94.8508C29.3679 94.8508 29.5046 94.8267 29.6158 94.777C29.7285 94.7273 29.8337 94.6565 29.9329 94.5646C30.032 94.4713 30.0921 94.4035 30.1132 94.3568C30.1342 94.3116 30.1447 94.1911 30.1447 93.9984C30.1447 93.6746 30.1012 93.4622 30.0155 93.3598C29.9299 93.2574 29.7931 93.2062 29.6038 93.2062L29.5121 93.2092C29.455 93.2092 29.4265 93.1911 29.4265 93.1535C29.4265 93.1083 29.4581 93.0857 29.5212 93.0857L29.6774 93.0917L30.3446 93.0827L31.162 93.0646C31.2071 93.0646 31.2296 93.0857 31.2296 93.1263C31.2296 93.1685 31.2041 93.1911 31.153 93.1941C31.0313 93.2062 30.9306 93.2318 30.8555 93.2739C30.7788 93.3161 30.7307 93.3628 30.7142 93.4155C30.6962 93.4682 30.6872 93.5586 30.6872 93.6851C30.6872 94.1475 30.6766 94.4005 30.6541 94.4457C30.6331 94.4908 30.4498 94.5948 30.1057 94.7559C29.7616 94.9186 29.4145 94.9984 29.0659 94.9984C28.4889 94.9984 27.996 94.8131 27.5858 94.4411C27.1756 94.0691 26.9713 93.6008 26.9713 93.033C26.9713 92.6429 27.0674 92.289 27.2628 91.9712C27.4566 91.6549 27.7226 91.4094 28.0592 91.2347C28.3957 91.06 28.7383 90.9727 29.0869 90.9727C29.413 90.9727 29.7661 91.066 30.1447 91.2543C30.2514 91.307 30.325 91.3341 30.3686 91.3341C30.4302 91.3341 30.4768 91.307 30.5099 91.2543C30.5399 91.2091 30.5655 91.1865 30.5895 91.1865C30.6346 91.1865 30.6616 91.2437 30.6691 91.3582C30.6812 91.5374 30.7097 91.8115 30.7548 92.1805C30.7593 92.2001 30.7608 92.2182 30.7608 92.2332C30.7608 92.2829 30.7398 92.307 30.6992 92.307Z" fill="#A26D8D"/>
<path d="M33.9162 90.9863H34.0529C34.2723 91.4381 34.5758 92.2108 34.9635 93.3042C35.2129 94.0045 35.3842 94.4337 35.4774 94.5934C35.5705 94.7515 35.7193 94.8404 35.9251 94.8584C35.9897 94.8645 36.0228 94.8855 36.0228 94.9232C36.0228 94.9503 36.0063 94.9654 35.9732 94.9654L35.9311 94.9624C35.7508 94.9473 35.5194 94.9383 35.2399 94.9383C34.8102 94.9383 34.5352 94.9458 34.4135 94.9593C34.3519 94.9593 34.3219 94.9413 34.3219 94.9066C34.3219 94.881 34.3444 94.866 34.3895 94.8599C34.5563 94.8434 34.672 94.8148 34.7366 94.7741C34.8012 94.7319 34.8328 94.6672 34.8328 94.5783C34.8328 94.494 34.7726 94.2816 34.6524 93.9412L34.4781 93.4322C34.376 93.4322 33.9177 93.4382 33.1048 93.4503C32.8989 93.997 32.7968 94.3418 32.7968 94.4849C32.7968 94.6054 32.8478 94.6958 32.9485 94.7545C33.0492 94.8133 33.1499 94.8449 33.2475 94.8509C33.3197 94.8569 33.3572 94.878 33.3572 94.9172C33.3572 94.9322 33.3452 94.9473 33.3212 94.9608C33.0056 94.9473 32.8163 94.9398 32.7517 94.9398C32.4211 94.9398 32.1987 94.9443 32.0845 94.9518C32.0214 94.9518 31.9899 94.9337 31.9899 94.8991C31.9899 94.8675 32.0169 94.8479 32.0725 94.8404C32.2994 94.8102 32.4722 94.6566 32.5924 94.378C32.7126 94.0994 32.8989 93.5994 33.1544 92.878C33.3858 92.2183 33.6397 91.5888 33.9162 90.9863ZM33.7975 91.6324C33.6142 92.0074 33.4008 92.5526 33.1559 93.2665C33.3587 93.256 33.5045 93.2515 33.5931 93.2515L34.4225 93.2665C34.3504 93.0617 34.2467 92.7891 34.116 92.4487C33.9552 92.0451 33.8486 91.7725 33.7975 91.6324Z" fill="#A26D8D"/>
<path d="M39.1872 92.9531C39.4607 93.0721 39.65 93.1956 39.7582 93.3251C39.8649 93.4546 39.9445 93.6549 39.9941 93.9245C40.0602 94.2799 40.1519 94.5179 40.2706 94.6414C40.3878 94.7634 40.5425 94.8297 40.7319 94.8372C40.7845 94.8417 40.8115 94.8598 40.8115 94.8944C40.8115 94.9291 40.7815 94.9456 40.7199 94.9456C40.1684 94.9456 39.8348 94.9275 39.7176 94.8914C39.6004 94.8553 39.5133 94.6534 39.4562 94.286C39.4036 93.929 39.348 93.667 39.2894 93.5028C39.2308 93.3386 39.1391 93.2121 39.0114 93.1233C38.8837 93.0344 38.6854 92.9922 38.4164 92.9922C38.3142 92.9922 38.1985 93.0028 38.0678 93.0254C38.0573 93.1489 38.0528 93.2784 38.0528 93.4124C38.0528 93.9185 38.0603 94.2468 38.0738 94.3944C38.0873 94.5435 38.1294 94.6519 38.2 94.7197C38.2691 94.7875 38.3864 94.8236 38.5501 94.8281C38.6208 94.8297 38.6568 94.8477 38.6568 94.8794C38.6568 94.9185 38.6132 94.9366 38.5276 94.9366H37.0656C36.9814 94.9366 36.9379 94.917 36.9379 94.8794C36.9379 94.8447 36.9709 94.8281 37.0385 94.8281C37.1873 94.8281 37.2925 94.8056 37.3496 94.7604C37.4082 94.7152 37.4532 94.6444 37.4863 94.5495C37.5194 94.4546 37.5359 94.2814 37.5359 94.0299L37.5299 93.426L37.5329 92.5058C37.5329 92.0359 37.5224 91.7256 37.5013 91.575C37.4803 91.4229 37.4442 91.3205 37.3901 91.2693C37.3376 91.2166 37.2143 91.1759 37.0205 91.1458C36.9784 91.1398 36.9589 91.1232 36.9589 91.0961C36.9589 91.0645 37.001 91.0479 37.0836 91.0479L38.8311 91.0103C39.3134 91.0103 39.6635 91.1021 39.8814 91.2889C40.0993 91.4741 40.2075 91.7015 40.2075 91.9696C40.2075 92.1398 40.1639 92.2934 40.0768 92.4335C39.9896 92.5736 39.8859 92.6745 39.7657 92.7377C39.647 92.801 39.4532 92.8733 39.1872 92.9531ZM38.0693 92.8778C38.448 92.8703 38.7304 92.8431 38.9198 92.798C39.1091 92.7528 39.2699 92.6534 39.4021 92.4983C39.5358 92.3446 39.6019 92.1624 39.6019 91.9515C39.6019 91.7286 39.5283 91.5344 39.3811 91.3687C39.2338 91.203 38.9979 91.1202 38.6718 91.1202C38.4945 91.1202 38.2992 91.1443 38.0843 91.191C38.0603 91.7332 38.0483 92.1654 38.0483 92.4877C38.0483 92.5977 38.0543 92.7287 38.0693 92.8778Z" fill="#A26D8D"/>
<path d="M47.0232 94.9535C46.927 94.958 46.8714 94.9595 46.8579 94.9595C46.7857 94.9595 46.6535 94.9565 46.4612 94.9489C46.2689 94.9414 45.8737 94.9384 45.2696 94.9384H44.5184C44.4913 94.9384 44.3906 94.9429 44.2163 94.9535C44.0435 94.964 43.9369 94.9685 43.9008 94.9685C43.7505 94.9685 43.6754 94.9489 43.6754 94.9098C43.6754 94.8782 43.7055 94.8616 43.7641 94.8601C43.9549 94.848 44.0871 94.8074 44.1622 94.7366C44.2374 94.6658 44.2885 94.5664 44.3155 94.4339C44.3426 94.3028 44.3561 93.9474 44.3561 93.3691L44.3591 92.3088C44.3591 91.9654 44.3441 91.726 44.314 91.5889C44.284 91.4518 44.2208 91.3479 44.1247 91.2756C44.0285 91.2033 43.9218 91.1627 43.8016 91.1521C43.7385 91.1461 43.707 91.125 43.707 91.0889C43.707 91.0527 43.7355 91.0347 43.7926 91.0347C43.8061 91.0347 43.8317 91.0362 43.8692 91.0377C44.1818 91.0573 44.5484 91.0678 44.9676 91.0678L45.4875 91.0588C45.5401 91.0588 45.5672 91.0783 45.5672 91.1175C45.5672 91.1536 45.5386 91.1702 45.4815 91.1702C45.3418 91.1702 45.2246 91.1973 45.1314 91.253C45.0382 91.3088 44.9751 91.372 44.9451 91.4443C44.915 91.5166 44.8985 91.6567 44.8985 91.866L44.8745 93.2667L44.8805 94.0483C44.8805 94.2908 44.891 94.4489 44.912 94.5212C44.9331 94.595 44.9751 94.6598 45.0398 94.7185C45.1044 94.7772 45.2231 94.8059 45.3944 94.8059C45.4079 94.8059 45.5837 94.7998 45.9233 94.7878C46.1937 94.7501 46.4356 94.6176 46.6505 94.3917C46.8654 94.1643 47.0081 93.961 47.0788 93.7817C47.0998 93.7305 47.1268 93.7049 47.1584 93.7049C47.1914 93.7049 47.208 93.729 47.208 93.7757C47.208 93.8314 47.1794 94.0287 47.1238 94.3691C47.0727 94.7095 47.0367 94.9038 47.0232 94.9535Z" fill="#A26D8D"/>
<path d="M51.3461 94.9535C51.2499 94.958 51.1943 94.9595 51.1808 94.9595C51.1087 94.9595 50.9765 94.9565 50.7841 94.9489C50.5933 94.9414 50.1966 94.9384 49.5926 94.9384H48.8413C48.8142 94.9384 48.7136 94.9429 48.5393 94.9535C48.3665 94.964 48.2598 94.9685 48.2237 94.9685C48.0735 94.9685 47.9984 94.9489 47.9984 94.9098C47.9984 94.8782 48.0284 94.8616 48.087 94.8601C48.2778 94.848 48.4101 94.8074 48.4852 94.7366C48.5603 94.6658 48.6114 94.5664 48.6385 94.4339C48.6655 94.3028 48.679 93.9474 48.679 93.3691L48.682 92.3088C48.682 91.9654 48.667 91.726 48.6354 91.5889C48.6054 91.4518 48.5423 91.3479 48.4461 91.2756C48.35 91.2033 48.2433 91.1627 48.1231 91.1521C48.06 91.1461 48.0284 91.125 48.0284 91.0889C48.0284 91.0527 48.057 91.0347 48.114 91.0347C48.1276 91.0347 48.1531 91.0362 48.1907 91.0377C48.5032 91.0573 48.8698 91.0678 49.2891 91.0678L49.809 91.0588C49.8615 91.0588 49.8886 91.0783 49.8886 91.1175C49.8886 91.1536 49.86 91.1702 49.803 91.1702C49.6632 91.1702 49.546 91.1973 49.4528 91.253C49.3597 91.3088 49.2966 91.372 49.2665 91.4443C49.2365 91.5166 49.2199 91.6567 49.2199 91.866L49.1959 93.2667L49.2019 94.0483C49.2019 94.2908 49.2124 94.4489 49.2335 94.5212C49.2545 94.595 49.2966 94.6598 49.3612 94.7185C49.4258 94.7772 49.5445 94.8059 49.7158 94.8059C49.7293 94.8059 49.9051 94.7998 50.2447 94.7878C50.5137 94.7501 50.7571 94.6176 50.972 94.3917C51.1868 94.1643 51.3296 93.961 51.4002 93.7817C51.4212 93.7305 51.4483 93.7049 51.4798 93.7049C51.5129 93.7049 51.5294 93.729 51.5294 93.7757C51.5294 93.8314 51.5009 94.0287 51.4453 94.3691C51.3942 94.7095 51.3596 94.9038 51.3461 94.9535Z" fill="#A26D8D"/>
<path d="M55.5683 91.0992C55.6254 91.3206 55.681 91.6293 55.7366 92.0284C55.7276 92.0435 55.7171 92.0525 55.7051 92.0525C55.6916 92.0525 55.6765 92.045 55.6615 92.0284C55.5263 91.81 55.3955 91.6429 55.2708 91.5284C55.1461 91.4139 55.0214 91.3326 54.8967 91.2844C54.772 91.2362 54.5571 91.2121 54.2506 91.2121C53.9636 91.2121 53.7352 91.2287 53.5684 91.2618C53.5534 91.2814 53.5444 91.3176 53.5444 91.3718C53.5444 91.3853 53.5429 91.4109 53.5384 91.4456C53.5188 91.6037 53.5083 92.0299 53.5083 92.7272C53.5083 92.7574 53.5098 92.798 53.5143 92.8507C53.6646 92.8568 53.7667 92.8598 53.8223 92.8598C54.0703 92.8598 54.2506 92.8221 54.3618 92.7483C54.473 92.6745 54.5706 92.5134 54.6533 92.2679C54.6668 92.2257 54.6863 92.2061 54.7119 92.2061C54.7494 92.2061 54.7675 92.2348 54.7675 92.292L54.7554 92.411C54.7404 92.5676 54.7314 92.7287 54.7314 92.8944C54.7314 93.164 54.7359 93.405 54.7464 93.6218C54.7464 93.6896 54.7284 93.7227 54.6923 93.7227C54.6653 93.7227 54.6473 93.6987 54.6382 93.652C54.5962 93.4185 54.5105 93.2513 54.3783 93.1489C54.2461 93.0465 53.9591 92.9953 53.5158 92.9953C53.5098 93.1399 53.5068 93.3718 53.5068 93.6941C53.5068 94.1098 53.5218 94.3749 53.5504 94.4878C53.5804 94.6008 53.651 94.6896 53.7637 94.7559C53.8764 94.8222 54.0658 94.8553 54.3332 94.8553C55.0995 94.8553 55.5939 94.5902 55.8163 94.0616C55.8433 93.9969 55.8719 93.9637 55.9004 93.9637C55.932 93.9637 55.947 93.9848 55.947 94.0285C55.947 94.0526 55.9425 94.0782 55.932 94.1053C55.9199 94.1429 55.8914 94.283 55.8463 94.5255C55.8358 94.5767 55.7982 94.7303 55.7336 94.9878L54.497 94.9848C54.3197 94.9848 54.0597 94.9773 53.7157 94.9622C53.3716 94.9472 53.068 94.9396 52.8036 94.9381C52.5391 94.9366 52.4009 94.9321 52.3889 94.9216C52.3769 94.911 52.3708 94.9005 52.3708 94.8884C52.3708 94.8493 52.4039 94.8297 52.4685 94.8297C52.6864 94.8297 52.8306 94.771 52.8998 94.655C52.9689 94.539 53.0034 94.2559 53.0034 93.8056L53.0004 93.2001L53.0094 92.6324C53.0094 92.5179 53.0034 92.301 52.9899 91.9832C52.9764 91.6655 52.9659 91.4832 52.9539 91.438C52.9433 91.3929 52.9133 91.3477 52.8622 91.304C52.8126 91.2603 52.7014 91.2151 52.5301 91.17C52.479 91.1564 52.4535 91.1338 52.4535 91.1052C52.4535 91.0691 52.488 91.0525 52.5572 91.0525L53.1597 91.0856C53.3716 91.0962 53.8945 91.1007 54.7269 91.1007C55.2768 91.0962 55.5563 91.0977 55.5683 91.0992Z" fill="#A26D8D"/>
<path d="M57.8537 91.0843C57.9724 91.244 58.1768 91.4925 58.4683 91.8268L59.4134 92.9247L60.3225 93.979C60.342 93.622 60.3525 93.1582 60.3525 92.5874C60.3525 92.1596 60.3435 91.872 60.3255 91.7274C60.3074 91.5828 60.2428 91.4608 60.1286 91.3614C60.0159 91.262 59.8747 91.2138 59.7049 91.2138C59.6253 91.2138 59.5862 91.1973 59.5862 91.1641C59.5862 91.1446 59.5952 91.1295 59.6117 91.122C59.6283 91.1129 59.7605 91.1039 60.0084 91.0948C60.2564 91.0858 60.4652 91.0813 60.635 91.0813L61.0332 91.0843H61.0978C61.1594 91.0843 61.1895 91.1009 61.1895 91.1355C61.1895 91.1656 61.1624 91.1837 61.1098 91.1897C60.9115 91.2108 60.7672 91.2635 60.6801 91.3449C60.5929 91.4262 60.5403 91.5452 60.5238 91.6988C60.5073 91.8524 60.4983 92.372 60.4983 93.2546L60.4697 94.8179C60.4697 94.8977 60.4502 94.9368 60.4111 94.9368C60.4006 94.9368 60.3871 94.9323 60.3705 94.9233C60.354 94.9143 60.2654 94.8148 60.1061 94.6251C59.9468 94.4338 59.75 94.2064 59.5171 93.9398C59.2842 93.6732 59.1009 93.4579 58.9671 93.2922C58.6741 92.9353 58.4893 92.7154 58.4112 92.6325C58.1257 92.3283 57.9574 92.134 57.9063 92.0467C57.8733 91.9879 57.8417 91.9578 57.8147 91.9578C57.7921 91.9578 57.7816 91.997 57.7816 92.0738L57.7876 92.5332C57.7876 93.116 57.8026 93.5799 57.8342 93.9278C57.8657 94.2757 57.8988 94.479 57.9334 94.5392C57.9679 94.5995 58.028 94.6597 58.1137 94.7215C58.1993 94.7832 58.291 94.8133 58.3871 94.8133C58.5179 94.8133 58.5825 94.8374 58.5825 94.8841C58.5825 94.9203 58.5464 94.9368 58.4728 94.9368L57.0529 94.9338C56.9852 94.9338 56.9522 94.9173 56.9522 94.8841C56.9522 94.845 56.9852 94.8254 57.0498 94.8254C57.2918 94.8254 57.4525 94.7712 57.5337 94.6642C57.6148 94.5573 57.6554 94.3284 57.6554 93.979L57.6313 92.9398C57.6313 92.3253 57.6148 91.9639 57.5818 91.8554C57.5487 91.7455 57.4736 91.6129 57.3564 91.4563C57.2392 91.2997 57.1054 91.2108 56.9567 91.1912C56.8891 91.1837 56.856 91.1656 56.856 91.1385C56.856 91.1009 56.8996 91.0828 56.9852 91.0828L57.8537 91.0843Z" fill="#A26D8D"/>
<path d="M62.1736 92.9758C62.1736 92.7092 62.2548 92.417 62.4156 92.0977C62.5763 91.7784 62.8122 91.5164 63.1233 91.3085C63.4328 91.1007 63.7829 90.9983 64.1736 90.9983C64.719 90.9983 65.1698 91.1941 65.5244 91.5841C65.8805 91.9742 66.0578 92.4215 66.0578 92.9215C66.0578 93.4547 65.861 93.9321 65.4673 94.3553C65.0736 94.7785 64.6003 94.9894 64.0473 94.9894C63.5184 94.9894 63.0737 94.8041 62.7146 94.4321C62.3525 94.0646 62.1736 93.5782 62.1736 92.9758ZM62.8318 92.8794C62.8318 93.2017 62.8814 93.5315 62.979 93.8704C63.0782 94.2092 63.2315 94.4547 63.4418 94.6083C63.6522 94.762 63.8776 94.8373 64.118 94.8373C64.5056 94.8373 64.8152 94.6475 65.0481 94.2695C65.281 93.8914 65.3982 93.4532 65.3982 92.9562C65.3982 92.4742 65.2795 92.051 65.0405 91.6866C64.8031 91.3221 64.4921 91.1399 64.109 91.1399C63.8205 91.1399 63.5785 91.2378 63.3862 91.432C63.1939 91.6263 63.0526 91.8598 62.964 92.1293C62.8753 92.4004 62.8318 92.6504 62.8318 92.8794Z" fill="#A26D8D"/>
<path d="M70.4348 91.0661L71.0434 91.0541C71.8127 91.0541 72.3942 91.2408 72.7879 91.6158C73.1816 91.9908 73.3784 92.4637 73.3784 93.033C73.3784 93.4382 73.2837 93.7891 73.0944 94.0888C72.9051 94.3885 72.6692 94.6129 72.3852 94.765C72.1012 94.9171 71.7241 94.9924 71.2507 94.9924C71.1441 94.9924 71.0103 94.9864 70.8466 94.9743C70.5551 94.9502 70.3913 94.9382 70.3567 94.9382C69.7106 94.9382 69.3305 94.9457 69.2163 94.9593C69.1516 94.9593 69.1186 94.9427 69.1186 94.9096C69.1186 94.887 69.1306 94.8704 69.1547 94.8629C69.1787 94.8554 69.2508 94.8433 69.3725 94.8283C69.5303 94.8072 69.6415 94.7439 69.7046 94.6385C69.7692 94.5346 69.8083 94.2078 69.8248 93.6611L69.8729 92.0947C69.8729 91.9125 69.8609 91.7378 69.8353 91.5691C69.8113 91.4004 69.7722 91.292 69.7196 91.2438C69.667 91.1956 69.5844 91.1625 69.4702 91.1444C69.3876 91.1324 69.347 91.1098 69.347 91.0766C69.347 91.0345 69.368 91.0149 69.4086 91.0149C69.4477 91.0149 69.5694 91.0239 69.7707 91.0405C69.9736 91.0586 70.1944 91.0661 70.4348 91.0661ZM70.3312 93.9261C70.3312 94.1867 70.3477 94.3719 70.3823 94.4849C70.4168 94.5963 70.4904 94.6882 70.6031 94.7605C70.7158 94.8328 70.8976 94.8689 71.1486 94.8689C71.5062 94.8689 71.7977 94.7846 72.0201 94.6144C72.2424 94.4442 72.4167 94.2183 72.5415 93.9367C72.6662 93.655 72.7293 93.3553 72.7293 93.0375C72.7293 92.5676 72.5865 92.1429 72.301 91.7619C72.0156 91.3809 71.5723 91.1911 70.9698 91.1911C70.7023 91.1911 70.546 91.2001 70.501 91.2182C70.4574 91.2363 70.4348 91.2875 70.4348 91.3748C70.4348 91.4517 70.4273 91.5887 70.4138 91.786C70.3943 92.0737 70.3808 92.2996 70.3747 92.4607L70.3477 93.2755C70.3372 93.652 70.3312 93.8704 70.3312 93.9261Z" fill="#A26D8D"/>
<path d="M77.6156 91.0992C77.6727 91.3206 77.7283 91.6293 77.7839 92.0284C77.7749 92.0435 77.7644 92.0525 77.7524 92.0525C77.7389 92.0525 77.7238 92.045 77.7088 92.0284C77.5736 91.81 77.4428 91.6429 77.3181 91.5284C77.1934 91.4139 77.0687 91.3326 76.944 91.2844C76.8193 91.2362 76.6044 91.2121 76.2979 91.2121C76.0109 91.2121 75.7825 91.2287 75.6157 91.2618C75.6007 91.2814 75.5917 91.3176 75.5917 91.3718C75.5917 91.3853 75.5902 91.4109 75.5857 91.4456C75.5661 91.6037 75.5556 92.0299 75.5556 92.7272C75.5556 92.7574 75.5571 92.798 75.5616 92.8507C75.7119 92.8568 75.814 92.8598 75.8696 92.8598C76.1176 92.8598 76.2979 92.8221 76.4091 92.7483C76.5203 92.6745 76.6179 92.5134 76.7006 92.2679C76.7141 92.2257 76.7336 92.2061 76.7592 92.2061C76.7967 92.2061 76.8148 92.2348 76.8148 92.292L76.8027 92.411C76.7877 92.5676 76.7787 92.7287 76.7787 92.8944C76.7787 93.164 76.7832 93.405 76.7937 93.6218C76.7937 93.6896 76.7757 93.7227 76.7396 93.7227C76.7126 93.7227 76.6946 93.6987 76.6855 93.652C76.6435 93.4185 76.5578 93.2513 76.4256 93.1489C76.2934 93.0465 76.0064 92.9953 75.5631 92.9953C75.5571 93.1399 75.5541 93.3718 75.5541 93.6941C75.5541 94.1098 75.5691 94.3749 75.5977 94.4878C75.6277 94.6008 75.6984 94.6896 75.811 94.7559C75.9237 94.8222 76.1131 94.8553 76.3805 94.8553C77.1468 94.8553 77.6412 94.5902 77.8636 94.0616C77.8906 93.9969 77.9192 93.9637 77.9477 93.9637C77.9793 93.9637 77.9943 93.9848 77.9943 94.0285C77.9943 94.0526 77.9898 94.0782 77.9793 94.1053C77.9672 94.1429 77.9387 94.283 77.8936 94.5255C77.8831 94.5767 77.847 94.7303 77.7809 94.9878L76.5443 94.9848C76.367 94.9848 76.1071 94.9773 75.763 94.9622C75.4189 94.9472 75.1153 94.9396 74.8509 94.9381C74.5864 94.9366 74.4482 94.9321 74.4362 94.9216C74.4242 94.911 74.4182 94.9005 74.4182 94.8884C74.4182 94.8493 74.4512 94.8297 74.5158 94.8297C74.7337 94.8297 74.8779 94.771 74.9471 94.655C75.0162 94.539 75.0507 94.2559 75.0507 93.8056L75.0477 93.2001L75.0567 92.6324C75.0567 92.5179 75.0507 92.301 75.0372 91.9832C75.0237 91.6655 75.0132 91.4832 75.0012 91.438C74.9906 91.3929 74.9606 91.3477 74.9095 91.304C74.8599 91.2603 74.7487 91.2151 74.5774 91.17C74.5263 91.1564 74.5008 91.1338 74.5008 91.1052C74.5008 91.0691 74.5354 91.0525 74.6045 91.0525L75.207 91.0856C75.4189 91.0962 75.9418 91.1007 76.7757 91.1007C77.3241 91.0962 77.6036 91.0977 77.6156 91.0992Z" fill="#A26D8D"/>
<path d="M82.3458 91.0632C82.5441 91.4954 82.7304 91.878 82.9017 92.2093C83.1091 92.6069 83.2699 92.9353 83.3856 93.1988C83.5012 93.4609 83.635 93.7214 83.7882 93.9775C84.1969 93.2997 84.6688 92.3283 85.2067 91.0632L86.3817 91.0662C86.4238 91.0722 86.4433 91.0903 86.4433 91.1204C86.4433 91.1506 86.4193 91.1686 86.3727 91.1716C86.1638 91.1897 86.0241 91.2319 85.955 91.2966C85.8843 91.3629 85.8423 91.4744 85.8257 91.6295C85.8092 91.7861 85.7927 92.0753 85.7777 92.5C85.7611 92.9247 85.7536 93.2771 85.7536 93.5603C85.7536 94.1025 85.7581 94.4187 85.7656 94.5091C85.7731 94.5995 85.8062 94.6702 85.8663 94.723C85.9264 94.7757 86.0406 94.8148 86.2119 94.8389C86.2615 94.8465 86.2855 94.866 86.2855 94.8947C86.2855 94.9248 86.2555 94.9383 86.1939 94.9383L85.0459 94.9353H84.7439C84.6763 94.9353 84.6432 94.9203 84.6432 94.8886C84.6432 94.8615 84.6657 94.8434 84.7108 94.8374C84.8761 94.8163 84.9858 94.7847 85.0399 94.7456C85.094 94.7064 85.1346 94.6356 85.1616 94.5332C85.1886 94.4323 85.2007 94.1778 85.2007 93.7741L85.2563 92.3524L85.2863 91.6506C85.2863 91.5979 85.2788 91.5708 85.2623 91.5708C85.2382 91.5708 85.2187 91.5858 85.2037 91.6189L84.6177 92.7771C84.2435 93.5181 84.0136 93.991 83.9295 94.1988L83.7462 94.6461C83.6891 94.7817 83.6545 94.857 83.6425 94.8706C83.6305 94.8826 83.6169 94.8901 83.6004 94.8901C83.5764 94.8901 83.5568 94.8645 83.5418 94.8133C83.5058 94.6913 83.3239 94.3013 82.9949 93.6461C82.8236 93.2771 82.6177 92.8554 82.3788 92.381C82.1399 91.9066 82.0107 91.6596 81.9897 91.6385C81.9701 91.6174 81.9551 91.6069 81.9461 91.6069C81.9265 91.6069 81.916 91.631 81.916 91.6807L81.883 93.4744L81.874 94.0663C81.874 94.3796 81.916 94.5859 82.0017 94.6823C82.0873 94.7787 82.2105 94.8269 82.3698 94.8269C82.472 94.8269 82.5231 94.848 82.5231 94.8916C82.5231 94.9233 82.499 94.9398 82.4494 94.9398L82.3878 94.9368L82.1955 94.9398L81.7793 94.9368C81.5975 94.9368 81.3646 94.9474 81.0791 94.9669C81.055 94.9504 81.043 94.9353 81.043 94.9203C81.043 94.8811 81.0776 94.86 81.1467 94.8585C81.3435 94.8525 81.4878 94.7877 81.581 94.6627C81.6741 94.5377 81.7192 94.2606 81.7192 93.8268L81.7132 93.3057L81.7552 91.9849C81.7552 91.6762 81.7102 91.4653 81.62 91.3524C81.5299 91.2394 81.3961 91.1716 81.2218 91.1491C81.1467 91.14 81.1091 91.1189 81.1091 91.0888C81.1091 91.0542 81.1362 91.0376 81.1918 91.0376C81.2218 91.0376 81.2564 91.0391 81.2985 91.0406L82.3458 91.0632Z" fill="#A26D8D"/>
<path d="M89.0908 90.9863H89.2276C89.4469 91.4381 89.7505 92.2108 90.1381 93.3042C90.3876 94.0045 90.5588 94.4337 90.6505 94.5934C90.7437 94.7515 90.8924 94.8404 91.0983 94.8584C91.1629 94.8645 91.1959 94.8855 91.1959 94.9232C91.1959 94.9503 91.1794 94.9654 91.1464 94.9654L91.1043 94.9624C90.924 94.9473 90.6926 94.9383 90.4131 94.9383C89.9834 94.9383 89.7084 94.9458 89.5867 94.9593C89.5251 94.9593 89.495 94.9413 89.495 94.9066C89.495 94.881 89.5176 94.866 89.5626 94.8599C89.7294 94.8434 89.8451 94.8148 89.9097 94.7741C89.9743 94.7319 90.0059 94.6672 90.0059 94.5783C90.0059 94.494 89.9458 94.2816 89.8256 93.9412L89.6513 93.4322C89.5491 93.4322 89.0908 93.4382 88.2779 93.4503C88.0721 93.997 87.9699 94.3418 87.9699 94.4849C87.9699 94.6054 88.021 94.6958 88.1217 94.7545C88.2223 94.8133 88.323 94.8449 88.4207 94.8509C88.4928 94.8569 88.5304 94.878 88.5304 94.9172C88.5304 94.9322 88.5183 94.9473 88.4943 94.9608C88.1788 94.9473 87.9894 94.9398 87.9248 94.9398C87.5943 94.9398 87.3719 94.9443 87.2577 94.9518C87.1946 94.9518 87.163 94.9337 87.163 94.8991C87.163 94.8675 87.1901 94.8479 87.2457 94.8404C87.4726 94.8102 87.6453 94.6566 87.7656 94.378C87.8858 94.0994 88.0721 93.5994 88.3275 92.878C88.5604 92.2183 88.8144 91.5888 89.0908 90.9863ZM88.9721 91.6324C88.7888 92.0074 88.5754 92.5526 88.3305 93.2665C88.5334 93.256 88.6791 93.2515 88.7678 93.2515L89.5972 93.2665C89.5251 93.0617 89.4229 92.7891 89.2907 92.4487C89.1299 92.0451 89.0232 91.7725 88.9721 91.6324Z" fill="#A26D8D"/>
<path d="M95.7472 92.307C95.7217 92.307 95.6947 92.2754 95.6676 92.2122C95.5068 91.8567 95.2935 91.5826 95.029 91.3883C94.7646 91.1956 94.4821 91.0992 94.1831 91.0992C93.9366 91.0992 93.6992 91.173 93.4678 91.3221C93.2379 91.4712 93.0486 91.7016 92.9029 92.0119C92.7571 92.3221 92.685 92.6534 92.685 93.0044C92.685 93.5059 92.8338 93.9381 93.1343 94.3041C93.4333 94.6686 93.8074 94.8508 94.2567 94.8508C94.416 94.8508 94.5527 94.8267 94.6639 94.777C94.7766 94.7273 94.8818 94.6565 94.9809 94.5646C95.0801 94.4713 95.1402 94.4035 95.1612 94.3568C95.1823 94.3116 95.1928 94.1911 95.1928 93.9984C95.1928 93.6746 95.1492 93.4622 95.0636 93.3598C94.9779 93.2574 94.8412 93.2062 94.6519 93.2062L94.5602 93.2092C94.5031 93.2092 94.4746 93.1911 94.4746 93.1535C94.4746 93.1083 94.5061 93.0857 94.5692 93.0857L94.7255 93.0917L95.3926 93.0827L96.21 93.0646C96.2551 93.0646 96.2776 93.0857 96.2776 93.1263C96.2776 93.1685 96.2521 93.1911 96.201 93.1941C96.0793 93.2062 95.9786 93.2318 95.9035 93.2739C95.8269 93.3161 95.7788 93.3628 95.7623 93.4155C95.7457 93.4682 95.7352 93.5586 95.7352 93.6851C95.7352 94.1475 95.7247 94.4005 95.7022 94.4457C95.6811 94.4908 95.4978 94.5948 95.1537 94.7559C94.8096 94.9186 94.4625 94.9984 94.1139 94.9984C93.5369 94.9984 93.0441 94.8131 92.6339 94.4411C92.2252 94.0707 92.0193 93.6008 92.0193 93.033C92.0193 92.6429 92.1155 92.289 92.3108 91.9712C92.5047 91.6549 92.7706 91.4094 93.1072 91.2347C93.4438 91.06 93.7864 90.9727 94.135 90.9727C94.461 90.9727 94.8141 91.066 95.1928 91.2543C95.2995 91.307 95.3731 91.3341 95.4167 91.3341C95.4783 91.3341 95.5249 91.307 95.5579 91.2543C95.588 91.2091 95.6135 91.1865 95.6376 91.1865C95.6826 91.1865 95.7097 91.2437 95.7172 91.3582C95.7292 91.5374 95.7578 91.8115 95.8028 92.1805C95.8073 92.2001 95.8088 92.2182 95.8088 92.2332C95.8103 92.2829 95.7893 92.307 95.7472 92.307Z" fill="#A26D8D"/>
<path d="M97.4301 91.0347L97.9681 91.0467L98.793 91.0347C98.8922 91.0347 98.9402 91.0542 98.9402 91.0934C98.9402 91.1235 98.9132 91.1416 98.8606 91.1491C98.6427 91.1762 98.506 91.2561 98.4519 91.3856C98.3978 91.5151 98.3708 91.997 98.3708 92.8299C98.3708 93.1356 98.3783 93.4805 98.3948 93.8631C98.4098 94.2456 98.4279 94.4745 98.4474 94.5498C98.4669 94.6251 98.5045 94.6854 98.5601 94.7336C98.6157 94.7803 98.7179 94.8149 98.8666 94.8345C98.9162 94.8405 98.9402 94.8586 98.9402 94.8902C98.9402 94.9264 98.9177 94.9429 98.8726 94.9429L98.1394 94.9369L97.5143 94.9459C97.4452 94.9459 97.4106 94.9264 97.4106 94.8872C97.4106 94.8465 97.4377 94.8254 97.4933 94.8254C97.6766 94.8209 97.7833 94.7607 97.8148 94.6417C97.8464 94.5227 97.8614 94.1462 97.8614 93.5076C97.8614 92.8917 97.8554 92.3931 97.8449 92.0121C97.8343 91.6311 97.8028 91.3991 97.7487 91.3133C97.6961 91.2289 97.5954 91.1747 97.4482 91.1536C97.3926 91.1431 97.3655 91.1205 97.3655 91.0859C97.3685 91.0527 97.3896 91.0347 97.4301 91.0347Z" fill="#A26D8D"/>
<path d="M101.837 90.9863H101.974C102.193 91.4381 102.497 92.2108 102.884 93.3042C103.134 94.0045 103.305 94.4337 103.397 94.5934C103.49 94.7515 103.639 94.8404 103.845 94.8584C103.909 94.8645 103.942 94.8855 103.942 94.9232C103.942 94.9503 103.926 94.9654 103.893 94.9654L103.852 94.9624C103.67 94.9473 103.44 94.9383 103.161 94.9383C102.731 94.9383 102.456 94.9458 102.335 94.9593C102.273 94.9593 102.243 94.9413 102.243 94.9066C102.243 94.881 102.265 94.866 102.311 94.8599C102.477 94.8434 102.593 94.8148 102.658 94.7741C102.721 94.7319 102.754 94.6672 102.754 94.5783C102.754 94.494 102.694 94.2816 102.573 93.9412L102.399 93.4322C102.297 93.4322 101.839 93.4382 101.026 93.4503C100.82 93.997 100.718 94.3418 100.718 94.4849C100.718 94.6054 100.769 94.6958 100.87 94.7545C100.97 94.8133 101.071 94.8449 101.169 94.8509C101.241 94.8569 101.278 94.878 101.278 94.9172C101.278 94.9322 101.266 94.9473 101.242 94.9608C100.927 94.9473 100.737 94.9398 100.673 94.9398C100.342 94.9398 100.12 94.9443 100.006 94.9518C99.9424 94.9518 99.9109 94.9337 99.9109 94.8991C99.9109 94.8675 99.9379 94.8479 99.9935 94.8404C100.22 94.8102 100.393 94.6566 100.513 94.378C100.634 94.0994 100.82 93.5994 101.075 92.878C101.307 92.2183 101.561 91.5888 101.837 90.9863ZM101.718 91.6324C101.535 92.0074 101.322 92.5526 101.077 93.2665C101.28 93.256 101.425 93.2515 101.514 93.2515L102.344 93.2665C102.271 93.0617 102.169 92.7891 102.037 92.4487C101.876 92.0451 101.77 91.7725 101.718 91.6324Z" fill="#A26D8D"/>
</g>
<defs>
<clipPath id="clip0">
<rect width="109" height="95" fill="white"/>
</clipPath>
</defs>
</svg>
