<?xml version="1.0" standalone="no"?>
<!DOCTYPE svg PUBLIC "-//W3C//DTD SVG 1.1//EN" "http://www.w3.org/Graphics/SVG/1.1/DTD/svg11.dtd" >
<svg xmlns="http://www.w3.org/2000/svg">
<metadata>Generated by IcoMoon</metadata>
<defs>
<font id="icomoon" horiz-adv-x="1024">
<font-face units-per-em="1024" ascent="960" descent="-64" />
<missing-glyph horiz-adv-x="1024" />
<glyph unicode="&#x20;" horiz-adv-x="512" d="" />
<glyph unicode="&#xe900;" d="M1024 448c0-282.77-229.23-512-512-512s-512 229.23-512 512c0 282.77 229.23 512 512 512s512-229.23 512-512z" />
<glyph unicode="&#xe901;" d="M651.636 463.515l-209.455-134.364v268.729l209.455-134.364z" />
<glyph unicode="&#xe902;" glyph-name="chevron-thin-right" d="M678.4 460.8l-365.619 379.904c-13.722 13.824-13.722 36.198 0 50.125 13.722 13.824 35.891 13.824 49.613 0l400.896-404.89c13.722-13.875 13.722-36.301 0-50.125l-400.896-404.89c-13.722-13.875-35.891-13.824-49.613 0-13.722 13.773-13.722 36.198 0 50.125l365.619 379.75z" />
<glyph unicode="&#xe903;" glyph-name="Arrow-3-Stroke" horiz-adv-x="2624" d="M2147.565-0.173l403.36 403.361c24.749 24.752 24.749 64.883 0 89.635l-403.36 403.358c-24.749 24.752-64.883 24.752-89.632 0-24.755-24.752-24.755-64.883 0-89.635l295.155-295.159h-2328.385v-126.763h2328.385l-295.155-295.158c-24.755-24.755-24.755-64.883 0-89.638 24.749-24.749 64.883-24.749 89.632 0z" />
<glyph unicode="&#xe904;" glyph-name="Info" horiz-adv-x="985" d="M107.016 480.516c17.957 219.608 210.543 383.079 430.15 365.122 219.613-17.957 383.082-210.543 365.123-430.154-17.955-219.609-210.542-383.078-430.151-365.123-219.609 17.959-383.080 210.546-365.123 430.155zM543.586 924.145c-262.966 21.503-493.575-174.243-515.077-437.209s174.243-493.576 437.21-515.080c262.967-21.504 493.576 174.241 515.080 437.209 21.5 262.969-174.245 493.577-437.213 515.080zM614.951 692.135c0-34.464-27.884-62.174-62.176-62.174-34.465 0-62.173 27.883-62.173 62.174s27.88 62.174 62.173 62.174c34.292 0 62.176-27.883 62.176-62.174zM545.843 200.976c-31.693-3.293-50.57 20.437-42.082 53.169l76.721 294.242-105.645-11.083-76.721-294.246h0.173c-16.106-61.999 19.57-107.028 79.84-100.62 52.129 5.541 105.299 47.628 129.024 98.891-14.375-21.476-37.927-37.758-61.31-40.353z" />
<glyph unicode="&#xe905;" glyph-name="Chevron-1" horiz-adv-x="668" d="M648.237 419.061l-474.602 511.11-126.442-117.092 357.955-385.558-384.223-359.736 117.983-125.551 509.329 476.828z" />
<glyph unicode="&#xe906;" glyph-name="Check-hand" horiz-adv-x="834" d="M8.815 685.442c0 146.818 118.924 265.742 265.741 265.742s265.741-118.924 265.741-265.742c0-36.128-7.342-70.622-20.442-102.084v-157.496c9.291 4.434 19.686 6.922 30.663 6.922 25.948 0 48.864-13.989 61.411-34.904 11.568 8.074 25.626 12.826 40.798 12.826 24.886 0 46.981-12.866 59.818-32.369 11.859 8.768 26.516 13.972 42.391 13.972 39.241 0 71.545-31.994 71.545-71.545v-140.434c0-125.463-112.744-237.531-263.083-237.531-82.542 0-133.263 39.962-171.855 78.554-38.179 38.179-66.937 74.789-96.938 123.041-21.546 34.708-50.294 68.175-74.012 93.223-11.792 12.453-22.202 22.682-29.642 29.776-3.717 3.545-6.687 6.302-8.708 8.155-1.011 0.926-1.785 1.627-2.295 2.087l-0.566 0.509-0.13 0.116-0.023 0.020c-0.001 0.001 0.001 0 0 0-4.342 3.852-6.845 9.368-6.878 15.171l20.441 0.124c-20.441-0.124-20.441-0.116-20.442-0.107v0.14l0.001 0.209c0.001 0.157 0.003 0.347 0.007 0.571 0.010 0.445 0.028 1.020 0.063 1.713 0.072 1.381 0.209 3.245 0.481 5.475 0.538 4.427 1.624 10.508 3.855 17.25 4.432 13.397 13.935 30.865 33.963 41.614 24.773 13.281 57.051 18.175 93.057 4.528 23.653-8.964 48.137-25.613 72.989-51.826v127.203c-31.416-13.189-65.868-20.647-102.208-20.647-146.818 0-265.741 118.924-265.741 265.741zM376.765 485.405v108.051c0 39.241 31.994 71.545 71.545 71.545 18.207 0 35.043-6.994 47.73-18.327 2.215 12.604 3.375 25.558 3.375 38.767 0 124.239-100.62 224.858-224.859 224.858s-224.858-100.619-224.858-224.858c0-124.238 100.619-224.857 224.858-224.857 36.823 0 71.418 9.058 102.208 24.82zM417.649 593.456v-338.309c0-8.937-5.806-16.839-14.336-19.509-8.528-2.67-17.803 0.511-22.9 7.853-34.793 50.125-66.115 73.772-91.127 83.251-24.399 9.248-44.358 5.652-59.241-2.326-7.768-4.174-12.060-11.131-14.475-18.429-0.512-1.549-0.916-3.047-1.232-4.444 1.442-1.35 3.057-2.875 4.827-4.563 7.847-7.483 18.76-18.207 31.115-31.254 24.573-25.951 55.416-61.687 79.044-99.746 28.463-45.779 55.306-79.897 91.126-115.718 35.407-35.407 76.265-66.58 142.947-66.58 130.526 0 222.199 96.436 222.199 196.649v140.434c0 16.867-13.893 30.661-30.661 30.661-16.867 0-30.663-13.893-30.663-30.661v-18.806c0-11.29-9.152-20.442-20.442-20.442s-20.441 9.152-20.441 20.442v37.203c0 16.867-13.894 30.663-30.663 30.663-16.867 0-30.663-13.894-30.663-30.663v-20.237c0-11.289-9.152-20.442-20.441-20.442s-20.442 9.153-20.442 20.442v42.315c0 16.867-13.894 30.661-30.663 30.661-16.867 0-30.663-13.893-30.663-30.661v-42.315c0-11.289-9.152-20.442-20.441-20.442-11.29 0-20.442 9.153-20.442 20.442v268.519c0 0.028 0 0.056 0 0.083v5.929c0 16.867-13.894 30.661-30.663 30.661-16.715 0-30.661-13.947-30.661-30.661zM351.886 761.837c6.22 6.222 15.726 7.763 23.594 3.828l0.41-0.203c5.878-2.939 9.984-8.524 11.036-15.009s-1.077-13.084-5.723-17.73l-123.876-123.876c-3.834-3.834-9.033-5.987-14.454-5.987s-10.62 2.153-14.454 5.987l-60.507 60.507c-4.647 4.646-6.776 11.244-5.724 17.728 1.053 6.486 5.158 12.071 11.036 15.010l0.408 0.203c7.87 3.935 17.376 2.393 23.597-3.828l45.644-45.644 109.014 109.014z" />
<glyph unicode="&#xe907;" glyph-name="Vector-Stroke-2" horiz-adv-x="1195" d="M594.724 907.289c-83.818 0-151.765-67.947-151.765-151.764s67.947-151.763 151.765-151.763c83.816 0 151.763 67.947 151.763 151.763 0 83.818-67.947 151.764-151.763 151.764zM399.599 755.524c0 107.765 87.36 195.125 195.125 195.125s195.125-87.36 195.125-195.125c0-107.764-87.361-195.125-195.125-195.125s-195.125 87.361-195.125 195.125zM668.441 823.105c-6.879 1.116-13.875-1.142-18.803-6.070l-76.595-76.595-33.233 33.233c-4.928 4.928-11.925 7.187-18.803 6.071s-12.803-5.472-15.92-11.705l-0.216-0.434c-4.183-8.363-2.532-18.463 4.094-25.060l48.781-48.566c8.465-8.426 22.153-8.42 30.608 0.017l92.143 91.926c6.613 6.597 8.257 16.688 4.079 25.043l-0.217 0.434c-3.115 6.233-9.039 10.589-15.919 11.705zM594.724 452c-57.235 0-103.633-46.398-103.633-103.633s46.398-103.633 103.633-103.633c57.234 0 103.632 46.398 103.632 103.633s-46.398 103.633-103.632 103.633zM447.73 348.366c0 81.183 65.811 146.994 146.994 146.994s146.994-65.811 146.994-146.994c0-55.304-30.54-103.474-75.677-128.565h53.996c30.427 0 58.756-9.342 82.261-25.304 3.7 0.357 7.579 0.586 11.616 0.586h42.746c-38.684 24.118-64.427 67.049-64.427 115.991 0 75.436 61.151 136.588 136.588 136.588 75.435 0 136.586-61.151 136.586-136.588 0-48.943-25.741-91.873-64.427-115.991h42.53c75.307 0 136.588-61.549 136.588-136.588v-38.156c0-11.975-9.706-21.681-21.681-21.681h-291.387v-26.016c0-11.973-9.706-21.681-21.679-21.681h-400.873c-0.037 0-0.073 0-0.109 0s-0.073 0-0.109 0h-100.164c-11.973 0-21.681 9.708-21.681 21.681v25.799h-291.386c-11.974 0-21.681 9.706-21.681 21.681v38.374c0 75.309 61.55 136.588 136.587 136.588h42.529c-38.684 24.118-64.426 67.049-64.426 115.991 0 75.436 61.153 136.588 136.587 136.588s136.588-61.151 136.588-136.588c0-48.943-25.743-91.873-64.427-115.991h42.529c4.105 0 8.049-0.237 11.805-0.605 23.512 15.973 51.85 25.322 82.288 25.322h53.996c-45.135 25.091-75.675 73.261-75.675 128.565zM365.777 72.589v-52.466c0-0.022 0-0.042 0-0.064v-25.735h56.803v78.483c0 11.973 9.706 21.681 21.681 21.681h0.217c11.973 0 21.679-9.708 21.679-21.681v-78.483h257.348v78.483c0 11.973 9.706 21.681 21.681 21.681 11.973 0 21.681-9.708 21.681-21.681v-78.483h56.803v22.939c-0.143 1.004-0.217 2.031-0.217 3.077v52.466c0 33.215-15.863 62.805-40.585 81.932-0.797 0.618-1.544 1.283-2.236 1.992-17.074 12.386-38.026 19.71-60.596 19.71h-250.627c-22.948 0-44.224-7.573-61.452-20.34-0.506-0.476-1.038-0.931-1.595-1.362-24.705-19.113-40.585-48.697-40.585-82.15zM345.515 151.724h-199.578c-51.143 0-93.226-41.92-93.226-93.227v-16.693h269.705v31.004c0.043 29.161 8.597 56.188 23.2 78.916h-0.101zM345.515 151.724c-14.614-22.827-23.099-49.92-23.099-78.916zM867.030 42.020h269.706v16.477c0 51.144-41.919 93.227-93.226 93.227h-199.578c14.612-22.827 23.097-49.918 23.097-78.916v-30.788zM260.627 404.303c-51.487 0-93.226-41.739-93.226-93.227s41.739-93.226 93.226-93.226 93.226 41.739 93.226 93.226c0 51.489-41.739 93.227-93.226 93.227zM928.821 404.303c-51.489 0-93.227-41.739-93.227-93.227s41.739-93.226 93.227-93.226c51.487 0 93.226 41.739 93.226 93.226 0 51.489-41.739 93.227-93.226 93.227z" />
<glyph unicode="&#xe908;" glyph-name="Crane" horiz-adv-x="1068" d="M490.762 883.379c2.673 42.639 38.315 76.619 81.605 76.619h408.832c1.602 0 3.034-0.119 4.184-0.255 1.992 0.169 4.005 0.255 6.037 0.255 39.553 0 71.545-32.304 71.545-71.546v-388.391c0-67.708-54.941-122.65-122.649-122.65s-122.65 54.942-122.65 122.65c0 11.289 9.152 20.442 20.442 20.442h81.766v275.962h-304.211l-31.242-62.486c14.526-2.872 27.736-10.967 36.927-23.060 0.478-0.629 0.919-1.284 1.321-1.965l38.249-64.68c0.205-0.307 0.402-0.62 0.591-0.939l103.386-174.882c1.239-1.646 2.333-3.321 3.302-4.981 5.673-9.481 8.587-20.234 8.587-31.277v-85.445c0-33.776-27.55-61.326-61.326-61.326h-20.442v-75.2c48.254-23.056 81.768-72.385 81.768-129.216 0-78.747-64.345-143.092-143.092-143.092h-490.599c-78.747 0-143.091 64.345-143.091 143.092 0 56.831 33.513 106.16 81.767 129.216v75.2h-61.325c-5.421 0-10.621 2.153-14.454 5.987s-5.987 9.033-5.987 14.454v221.791c0 11.29 9.152 20.442 20.442 20.442h347.508v166.599c0 11.29 9.152 20.442 20.442 20.442h28.249l74.12 148.239zM508.453 827.344l-46.102-92.204h76.942l30.679 61.36c-24.844 0.723-46.978 12.632-61.519 30.844zM408.835 694.257v-166.567c0-0.010 0-0.022 0-0.034v-201.349h306.624c11.197 0 20.442 9.245 20.442 20.442v78.7h-224.859c-11.289 0-20.441 9.152-20.441 20.442v187.041c0 11.289 9.152 20.441 20.441 20.441h96.999l-19.855 33.575c-3.897 4.649-9.636 7.308-15.613 7.308h-163.738zM632.218 612.491h-100.734v-146.158h187.168l-86.434 146.158zM367.951 326.308v180.907h-327.066v-180.907h61.197c0.042 0 0.085 0 0.128 0h265.741zM122.652 285.424v-61.324h531.482v61.324h-531.482zM143.093 183.216c-56.168 0-102.208-46.039-102.208-102.207s46.040-102.208 102.208-102.208h490.599c56.168 0 102.208 46.041 102.208 102.208s-46.041 102.207-102.208 102.207h-490.599zM603.037 837.348h316.839v51.104c0 10.989 2.496 21.384 6.947 30.662h-354.455c-22.439 0-40.884-18.444-40.884-40.883s18.445-40.883 40.884-40.883h30.669c0.003 0-0.001 0 0 0zM960.759 520.504h61.324v367.949c0 16.769-13.796 30.662-30.663 30.662-0.044 0-0.089 0-0.135 0-0.985-0.246-1.998-0.422-3.037-0.521-9.37-0.892-17.493-6.036-22.431-13.444-2.883-4.365-4.688-9.482-5.007-14.945-0.035-0.58-0.051-1.165-0.051-1.752v-367.949zM1019.503 479.62h-158.372c9.086-35.25 41.114-61.324 79.186-61.324s70.1 26.074 79.186 61.324zM282.096 113.714c18.063 0 32.707-14.643 32.707-32.707s-14.643-32.707-32.707-32.707c-18.063 0-32.707 14.643-32.707 32.707s14.643 32.707 32.707 32.707zM335.244 131.907c13.395 13.983 32.255 22.69 53.149 22.69s39.753-8.707 53.149-22.69c13.394 13.983 32.253 22.69 53.147 22.69 20.893 0 39.753-8.707 53.149-22.69 13.395 13.983 32.255 22.69 53.149 22.69 40.643 0 73.589-32.948 73.589-73.59s-32.946-73.589-73.589-73.589c-20.894 0-39.753 8.707-53.149 22.69-13.395-13.983-32.256-22.69-53.149-22.69s-39.753 8.707-53.147 22.69c-13.395-13.983-32.256-22.69-53.149-22.69-20.894 0-39.753 8.707-53.149 22.69-13.395-13.983-32.255-22.69-53.149-22.69-20.893 0-39.753 8.707-53.147 22.69-13.395-13.983-32.256-22.69-53.149-22.69-40.643 0-73.59 32.946-73.59 73.589s32.947 73.59 73.59 73.59c20.893 0 39.752-8.707 53.147-22.69 13.395 13.983 32.256 22.69 53.149 22.69 20.894 0 39.753-8.707 53.149-22.69zM421.1 81.007c0 18.063-14.643 32.707-32.707 32.707s-32.707-14.643-32.707-32.707c0-18.062 14.643-32.707 32.707-32.707s32.707 14.643 32.707 32.707zM527.395 81.007c0 18.063-14.643 32.707-32.707 32.707s-32.705-14.642-32.705-32.707c0-18.063 14.642-32.707 32.705-32.707s32.707 14.643 32.707 32.707zM568.278 81.007c0-18.062 14.645-32.707 32.708-32.707s32.707 14.643 32.707 32.707c0 18.063-14.643 32.707-32.707 32.707s-32.708-14.643-32.708-32.707zM175.8 113.714c-18.063 0-32.707-14.643-32.707-32.707s14.644-32.707 32.707-32.707c18.063 0 32.707 14.643 32.707 32.707s-14.643 32.707-32.707 32.707z" />
<glyph unicode="&#xe909;" glyph-name="Search" horiz-adv-x="1164" d="M493.326 859.332c-217.378 0-390.593-169.309-390.593-374.529s173.216-374.528 390.593-374.528c217.372 0 390.586 169.309 390.586 374.528s-173.214 374.529-390.586 374.529zM9.642 484.803c0 259.887 218.21 467.62 483.684 467.62 265.472 0 483.677-207.733 483.677-467.62 0-96.67-30.189-186.126-81.776-260.357l261.632-210.506-58.359-72.532-263.717 212.191c-87.743-84.457-208.691-136.415-341.457-136.415-265.474 0-483.684 207.732-483.684 467.619z" />
<glyph unicode="&#xea90;" glyph-name="facebook" d="M608 768h160v192h-160c-123.514 0-224-100.486-224-224v-96h-128v-192h128v-512h192v512h160l32 192h-192v96c0 17.346 14.654 32 32 32z" />
<glyph unicode="&#xea92;" glyph-name="instagram" d="M512 867.8c136.8 0 153-0.6 206.8-3 50-2.2 77-10.6 95-17.6 23.8-9.2 41-20.4 58.8-38.2 18-18 29-35 38.4-58.8 7-18 15.4-45.2 17.6-95 2.4-54 3-70.2 3-206.8s-0.6-153-3-206.8c-2.2-50-10.6-77-17.6-95-9.2-23.8-20.4-41-38.2-58.8-18-18-35-29-58.8-38.4-18-7-45.2-15.4-95-17.6-54-2.4-70.2-3-206.8-3s-153 0.6-206.8 3c-50 2.2-77 10.6-95 17.6-23.8 9.2-41 20.4-58.8 38.2-18 18-29 35-38.4 58.8-7 18-15.4 45.2-17.6 95-2.4 54-3 70.2-3 206.8s0.6 153 3 206.8c2.2 50 10.6 77 17.6 95 9.2 23.8 20.4 41 38.2 58.8 18 18 35 29 58.8 38.4 18 7 45.2 15.4 95 17.6 53.8 2.4 70 3 206.8 3zM512 960c-139 0-156.4-0.6-211-3-54.4-2.4-91.8-11.2-124.2-23.8-33.8-13.2-62.4-30.6-90.8-59.2-28.6-28.4-46-57-59.2-90.6-12.6-32.6-21.4-69.8-23.8-124.2-2.4-54.8-3-72.2-3-211.2s0.6-156.4 3-211c2.4-54.4 11.2-91.8 23.8-124.2 13.2-33.8 30.6-62.4 59.2-90.8 28.4-28.4 57-46 90.6-59 32.6-12.6 69.8-21.4 124.2-23.8 54.6-2.4 72-3 211-3s156.4 0.6 211 3c54.4 2.4 91.8 11.2 124.2 23.8 33.6 13 62.2 30.6 90.6 59s46 57 59 90.6c12.6 32.6 21.4 69.8 23.8 124.2 2.4 54.6 3 72 3 211s-0.6 156.4-3 211c-2.4 54.4-11.2 91.8-23.8 124.2-12.6 34-30 62.6-58.6 91-28.4 28.4-57 46-90.6 59-32.6 12.6-69.8 21.4-124.2 23.8-54.8 2.6-72.2 3.2-211.2 3.2v0zM512 711c-145.2 0-263-117.8-263-263s117.8-263 263-263 263 117.8 263 263c0 145.2-117.8 263-263 263zM512 277.4c-94.2 0-170.6 76.4-170.6 170.6s76.4 170.6 170.6 170.6c94.2 0 170.6-76.4 170.6-170.6s-76.4-170.6-170.6-170.6zM846.8 721.4c0-33.91-27.49-61.4-61.4-61.4s-61.4 27.49-61.4 61.4c0 33.91 27.49 61.4 61.4 61.4s61.4-27.49 61.4-61.4z" />
<glyph unicode="&#xea93;" glyph-name="whatsapp" d="M873 811.2c-95.8 96-223.2 148.8-359 148.8-279.6 0-507.2-227.6-507.2-507.4 0-89.4 23.4-176.8 67.8-253.6l-72-263 269 70.6c74.2-40.4 157.6-61.8 242.4-61.8h0.2c0 0 0 0 0 0 279.6 0 507.4 227.6 507.4 507.4 0 135.6-52.8 263-148.6 359zM514.2 30.4v0c-75.8 0-150 20.4-214.8 58.8l-15.4 9.2-159.6-41.8 42.6 155.6-10 16c-42.4 67-64.6 144.6-64.6 224.4 0 232.6 189.2 421.8 422 421.8 112.6 0 218.6-44 298.2-123.6 79.6-79.8 123.4-185.6 123.4-298.4-0.2-232.8-189.4-422-421.8-422zM745.4 346.4c-12.6 6.4-75 37-86.6 41.2s-20 6.4-28.6-6.4c-8.4-12.6-32.8-41.2-40.2-49.8-7.4-8.4-14.8-9.6-27.4-3.2s-53.6 19.8-102 63c-37.6 33.6-63.2 75.2-70.6 87.8s-0.8 19.6 5.6 25.8c5.8 5.6 12.6 14.8 19 22.2s8.4 12.6 12.6 21.2c4.2 8.4 2.2 15.8-1 22.2s-28.6 68.8-39 94.2c-10.2 24.8-20.8 21.4-28.6 21.8-7.4 0.4-15.8 0.4-24.2 0.4s-22.2-3.2-33.8-15.8c-11.6-12.6-44.4-43.4-44.4-105.8s45.4-122.6 51.8-131.2c6.4-8.4 89.4-136.6 216.6-191.4 30.2-13 53.8-20.8 72.2-26.8 30.4-9.6 58-8.2 79.8-5 24.4 3.6 75 30.6 85.6 60.2s10.6 55 7.4 60.2c-3 5.6-11.4 8.8-24.2 15.2z" />
<glyph unicode="&#xeac5;" glyph-name="skype" d="M425.6 922.6c-1.6 1-3.4 1.8-5 2.6-1.8-0.4-3.4-0.6-5.2-1l10.2-1.6zM36.8 539c-0.4-1.8-0.6-3.6-0.8-5.2 1-1.6 1.6-3.2 2.6-4.8l-1.8 10zM986.8 357.4c0.4 1.8 0.6 3.6 1 5.4-1 1.6-1.6 3.2-2.6 4.8l1.6-10.2zM592-23c1.6-1 3.4-1.8 5-2.6 1.8 0.4 3.6 0.6 5.4 0.8l-10.4 1.8zM987.8 362.8c-0.4-1.8-0.6-3.6-1-5.4l-1.8 10.4c1-1.8 1.8-3.4 2.8-5 5.2 28.8 8 58.2 8 87.6 0 65.2-12.8 128.6-38 188.2-24.4 57.6-59.2 109.4-103.6 153.8s-96.2 79.2-153.6 103.6c-59.6 25.2-123 38-188.2 38-30.8 0-61.6-2.8-91.6-8.6 0 0-0.2 0-0.2 0 1.6-0.8 3.4-1.6 5-2.6l-10.2 1.6c1.8 0.4 3.4 0.6 5.2 1-41.2 21.8-87.4 33.6-134.2 33.6-76.4 0-148.4-29.8-202.4-83.8s-83.8-126-83.8-202.4c0-48.6 12.6-96.6 36-138.8 0.4 1.8 0.6 3.6 0.8 5.2l1.8-10.2c-1 1.6-1.8 3.2-2.6 4.8-4.8-27.4-7.2-55.4-7.2-83.4 0-65.2 12.8-128.6 38-188.2 24.4-57.6 59.2-109.2 103.6-153.6s96.2-79.2 153.8-103.6c59.6-25.2 123-38 188.2-38 28.4 0 56.8 2.6 84.6 7.6-1.6 1-3.2 1.8-5 2.6l10.4-1.8c-1.8-0.4-3.6-0.6-5.4-0.8 42.8-24.2 91.4-37.2 140.8-37.2 76.4 0 148.4 29.8 202.4 83.8s83.8 126 83.8 202.4c-0.2 48.6-12.8 96.6-36.4 139.2zM514.2 154.2c-171.8 0-248.6 84.4-248.6 147.8 0 32.4 24 55.2 57 55.2 73.6 0 54.4-105.6 191.6-105.6 70.2 0 109 38.2 109 77.2 0 23.4-11.6 49.4-57.8 60.8l-152.8 38.2c-123 30.8-145.4 97.4-145.4 160 0 129.8 122.2 178.6 237 178.6 105.8 0 230.4-58.4 230.4-136.4 0-33.4-29-52.8-62-52.8-62.8 0-51.2 86.8-177.6 86.8-62.8 0-97.4-28.4-97.4-69s49.6-53.6 92.6-63.4l113.2-25.2c123.8-27.6 155.2-100 155.2-168 0-105.4-81-184.2-244.4-184.2z" />
<glyph unicode="&#xeaca;" glyph-name="linkedin2" d="M384 576h177.106v-90.782h2.532c24.64 44.194 84.958 90.782 174.842 90.782 186.946 0 221.52-116.376 221.52-267.734v-308.266h-184.61v273.278c0 65.184-1.334 149.026-96.028 149.026-96.148 0-110.82-70.986-110.82-144.292v-278.012h-184.542v576zM64 576h192v-576h-192v576zM256 736c0-53.019-42.981-96-96-96s-96 42.981-96 96c0 53.019 42.981 96 96 96s96-42.981 96-96z" />
</font></defs></svg>